{
    "options": {
        "frontPage": true,
        "paths": {
            "fonts": "fonts",
            "styles": "styles"
        }
    },
    "styles": {
        "black": {
            "style": "black/style.json",
            "tilejson": {
                "type": "overlay",
                "bounds": [-90, -180, 90, 180]
            }
        },
        "sepia": {
            "style": "sepia/style.json",
            "tilejson": {
                "type": "overlay",
                "bounds": [-90, -180, 90, 180]
            }
        },
        "silver": {
            "style": "silver/style.json",
            "tilejson": {
                "type": "overlay",
                "bounds": [-90, -180, 90, 180]
            }
        }
    },
    "data": {
        "main": {
            "mbtiles": "main.mbtiles"
        }
    }
}
