{
    "version": 8,
    "name": "silver",
    "metadata": {
        "mapbox:autocomposite": true
    },
    "glyphs": "{fontstack}/{range}.pbf",
    "center": [0, 0],
    "sources": {
        "main": {
            "type": "vector",
            "url": "mbtiles://main.mbtiles"
        }
    },
    "layers": [
        {
            "id": "background",
            "type": "background",
            "paint": {
                "background-color": "#e3e6e8"
            }
        },


        {
            "id": "ocean",
            "type": "fill",
            "source": "main",
            "source-layer": "water",
            "filter": [
                "all",
                ["==", "$type", "Polygon"],
                ["in", "class", "ocean"]
            ],
            "paint": {
                "fill-color": "#e6e9ea"
            }
        },
        {
            "id": "ocean__coast_out",
            "type": "line",
            "source": "main",
            "source-layer": "place",
            "filter": ["==", "class", "country"],
            "layout": {
                "line-join": "bevel"
            },
            "paint": {
                "line-color": "#dde1e3",
                "line-width": 20
            }
        },
        {
            "id": "ocean__coast_in",
            "type": "line",
            "source": "main",
            "source-layer": "place",
            "filter": ["==", "class", "country"],
            "layout": {
                "line-join": "round"
            },
            "paint": {
                "line-color": "#d8dcdf",
                "line-width": 4,
                "line-opacity": 0.2
            }
        },


        {
            "id": "country",
            "type": "fill",
            "source": "main",
            "source-layer": "place",
            "filter": ["==", "class", "country"],
            "paint": {
                "fill-color": "white"
            }
        },


        {
            "id": "urban",
            "minzoom": 4,
            "type": "fill",
            "source": "main",
            "source-layer": "place",
            "filter": [
                "all",
                ["==", "$type", "Polygon"],
                ["in", "class", "urban"]
            ],
            "paint": {
                "fill-color": "#000000",
                "fill-opacity": 0.02
            }
        },


        {
            "id": "country__outline",
            "type": "line",
            "source": "main",
            "source-layer": "place",
            "filter": ["==", "class", "country"],
            "paint": {
                "line-color": "#aec0aa",
                "line-opacity": 0.5,
                "line-width": 1
            }
        },


        {
            "id": "state__outline",
            "minzoom": 3,
            "type": "line",
            "source": "main",
            "source-layer": "place",
            "filter": ["==", "class", "province"],
            "layout": {
                "line-join": "round"
            },
            "paint": {
                "line-color": "#aec0aa",
                "line-opacity": 0.1
            }
        },


        {
            "id": "continent__water",
            "type": "fill",
            "source": "main",
            "source-layer": "water",
            "filter": [
                "all",
                ["==", "$type", "Polygon"],
                ["in", "class", "lake"]
            ],
            "paint": {
                "fill-color": "#e6e9ea"
            }
        },
        {
            "id": "continent__water__coast",
            "type": "line",
            "source": "main",
            "source-layer": "water",
            "filter": [
                "all",
                ["==", "$type", "Polygon"],
                ["in", "class", "lake"]
            ],
            "layout": {
                "line-join": "round"
            },
            "paint": {
                "line-color": "#aec0aa",
                "line-width": 1
            }
        },


        {
            "id": "continent__river",
            "minzoom": 4,
            "type": "line",
            "source": "main",
            "source-layer": "water",
            "filter": [
                "all",
                ["==", "$type", "LineString"],
                ["in", "class", "river"]
            ],
            "layout": {
                "line-join": "miter"
            },
            "paint": {
                "line-color": "hsl(200, 50%, 75%)",
                "line-opacity": 0.1,
                "line-width": 2
            }
        },


        {
            "id": "populatedplace",
            "minzoom": 5.5,
            "type": "circle",
            "source": "main",
            "source-layer": "place",
            "filter": [
                "all",
                ["==", "$type", "Point"],
                ["<=", "scalerank", 6]
            ],
            "paint": {
                "circle-color": "#1b3e41",
                "circle-opacity": 0.2,
                "circle-radius": 3
            }
        },


        {
            "id": "populatedplace__label",
            "minzoom": 5.5,
            "type": "symbol",
            "source": "main",
            "source-layer": "place",
            "filter": [
                "all",
                ["==", "$type", "Point"],
                ["<=", "scalerank", 6]
            ],
            "layout": {
                "text-field": "{name}",
                "text-font": ["Muli SemiBold"],
                "text-anchor": "left",
                "text-size": 10,
                "text-offset": [0.8, 0]
            },
            "paint": {
                "text-color": "#1b3e41",
                "text-opacity": 0.3
            }
        },
        {
            "id": "ocean__label",
            "minzoom": 3,
            "type": "symbol",
            "source": "main",
            "source-layer": "water",
            "filter": [
                "all",
                ["==", "$type", "Polygon"],
                ["in", "class", "ocean"],
                ["<=", "scalerank", 5]
            ],
            "layout": {
                "text-field": "{name}",
                "text-font": ["Muli Italic"],
                "text-size": 10
            },
            "paint": {
                "text-color": "#1b3e41",
                "text-opacity": 0.3
            }
        },
        {
            "id": "country__label",
            "minzoom": 3,
            "type": "symbol",
            "source": "main",
            "source-layer": "place_label",
            "filter": [
                "all",
                ["==", "$type", "Point"],
                ["==", "class", "country"]
            ],
            "layout": {
                "text-field": "{name}",
                "text-font": ["Muli SemiBold"],
                "text-size": 14,
                "text-max-width": 15
            },
            "paint": {
                "text-color": "#1b3e41"
            }
        },
        {
            "id": "state__label",
            "minzoom": 5,
            "type": "symbol",
            "source": "main",
            "source-layer": "place_label",
            "filter": [
                "all",
                ["==", "$type", "Point"],
                ["==", "class", "province"]
            ],
            "layout": {
                "text-field": "{name}",
                "text-font": ["Muli SemiBold"],
                "text-size": 12,
                "text-max-width": 15
            },
            "paint": {
                "text-color": "#1b3e41",
                "text-opacity": 0.7
            }
        },
        {
            "id": "continent__water__label",
            "minzoom": 6,
            "type": "symbol",
            "source": "main",
            "source-layer": "water",
            "filter": [
                "all",
                ["==", "$type", "Polygon"],
                ["in", "class", "lake"],
                ["<=", "scalerank", 5]
            ],
            "layout": {
                "text-field": "{name}",
                "text-font": ["Muli Italic"],
                "text-size": 10
            },
            "paint": {
                "text-color": "#1b3e41",
                "text-opacity": 0.3
            }
        },
        {
            "id": "continent__waterway__label",
            "minzoom": 6,
            "type": "symbol",
            "source": "main",
            "source-layer": "water",
            "filter": [
                "all",
                ["==", "$type", "Polygon"],
                ["in", "class", "river"]
            ],
            "layout": {
                "text-field": "{name}",
                "text-font": ["Muli Italic"],
                "text-size": 10
            },
            "paint": {
                "text-color": "#1b3e41",
                "text-opacity": 0.3
            }
        }
    ]
}
