{
"type": "FeatureCollection",
"name": "main",
"description": "date=20231106 shasum=379623670b8d327adedcb2cdf89c7805233e2ff8a8cfc79712e9f2ead9904b11 sql=SELECT MakePoint(label_x, label_y, 4326) AS geometry, 'country' AS class, iso_a2, name_long AS name, labelrank AS label_rank FROM ne_50m_admin_0_countries",
"crs": { "type": "name", "properties": { "name": "urn:ogc:def:crs:OGC:1.3:CRS84" } },
"features": [
{ "type": "Feature", "properties": { "class": "country", "iso_a2": "ZW", "name": "Zimbabwe", "label_rank": 3 }, "geometry": { "type": "Point", "coordinates": [ 29.925444, -18.91164 ] } },
{ "type": "Feature", "properties": { "class": "country", "iso_a2": "ZM", "name": "Zambia", "label_rank": 3 }, "geometry": { "type": "Point", "coordinates": [ 26.395298, -14.660804 ] } },
{ "type": "Feature", "properties": { "class": "country", "iso_a2": "YE", "name": "Yemen", "label_rank": 3 }, "geometry": { "type": "Point", "coordinates": [ 45.874383, 15.328226 ] } },
{ "type": "Feature", "properties": { "class": "country", "iso_a2": "VN", "name": "Vietnam", "label_rank": 2 }, "geometry": { "type": "Point", "coordinates": [ 105.387292, 21.715416 ] } },
{ "type": "Feature", "properties": { "class": "country", "iso_a2": "VE", "name": "Venezuela", "label_rank": 3 }, "geometry": { "type": "Point", "coordinates": [ -64.599381, 7.182476 ] } },
{ "type": "Feature", "properties": { "class": "country", "iso_a2": "VA", "name": "Vatican", "label_rank": 6 }, "geometry": { "type": "Point", "coordinates": [ 12.453418, 41.903323 ] } },
{ "type": "Feature", "properties": { "class": "country", "iso_a2": "VU", "name": "Vanuatu", "label_rank": 4 }, "geometry": { "type": "Point", "coordinates": [ 166.908762, -15.37153 ] } },
{ "type": "Feature", "properties": { "class": "country", "iso_a2": "UZ", "name": "Uzbekistan", "label_rank": 3 }, "geometry": { "type": "Point", "coordinates": [ 64.005429, 41.693603 ] } },
{ "type": "Feature", "properties": { "class": "country", "iso_a2": "UY", "name": "Uruguay", "label_rank": 4 }, "geometry": { "type": "Point", "coordinates": [ -55.966942, -32.961127 ] } },
{ "type": "Feature", "properties": { "class": "country", "iso_a2": "FM", "name": "Federated States of Micronesia", "label_rank": 6 }, "geometry": { "type": "Point", "coordinates": [ 158.234019, 6.887553 ] } },
{ "type": "Feature", "properties": { "class": "country", "iso_a2": "MH", "name": "Marshall Islands", "label_rank": 6 }, "geometry": { "type": "Point", "coordinates": [ 171.193609, 7.082568 ] } },
{ "type": "Feature", "properties": { "class": "country", "iso_a2": "MP", "name": "Northern Mariana Islands", "label_rank": 6 }, "geometry": { "type": "Point", "coordinates": [ 145.734397, 15.188188 ] } },
{ "type": "Feature", "properties": { "class": "country", "iso_a2": "VI", "name": "United States Virgin Islands", "label_rank": 6 }, "geometry": { "type": "Point", "coordinates": [ -64.779172, 17.746706 ] } },
{ "type": "Feature", "properties": { "class": "country", "iso_a2": "GU", "name": "Guam", "label_rank": 6 }, "geometry": { "type": "Point", "coordinates": [ 144.703614, 13.354173 ] } },
{ "type": "Feature", "properties": { "class": "country", "iso_a2": "AS", "name": "American Samoa", "label_rank": 4 }, "geometry": { "type": "Point", "coordinates": [ -170.747153, -14.32671 ] } },
{ "type": "Feature", "properties": { "class": "country", "iso_a2": "PR", "name": "Puerto Rico", "label_rank": 5 }, "geometry": { "type": "Point", "coordinates": [ -66.481065, 18.234668 ] } },
{ "type": "Feature", "properties": { "class": "country", "iso_a2": "US", "name": "United States", "label_rank": 2 }, "geometry": { "type": "Point", "coordinates": [ -97.482602, 39.538479 ] } },
{ "type": "Feature", "properties": { "class": "country", "iso_a2": "GS", "name": "South Georgia and the Islands", "label_rank": 4 }, "geometry": { "type": "Point", "coordinates": [ -31.063179, -55.683402 ] } },
{ "type": "Feature", "properties": { "class": "country", "iso_a2": "IO", "name": "British Indian Ocean Territory", "label_rank": 5 }, "geometry": { "type": "Point", "coordinates": [ 71.348349, -6.190826 ] } },
{ "type": "Feature", "properties": { "class": "country", "iso_a2": "SH", "name": "Saint Helena", "label_rank": 6 }, "geometry": { "type": "Point", "coordinates": [ -5.71262, -15.950487 ] } },
{ "type": "Feature", "properties": { "class": "country", "iso_a2": "PN", "name": "Pitcairn Islands", "label_rank": 4 }, "geometry": { "type": "Point", "coordinates": [ -128.317536, -24.364576 ] } },
{ "type": "Feature", "properties": { "class": "country", "iso_a2": "AI", "name": "Anguilla", "label_rank": 6 }, "geometry": { "type": "Point", "coordinates": [ -63.026361, 18.242979 ] } },
{ "type": "Feature", "properties": { "class": "country", "iso_a2": "FK", "name": "Falkland Islands / Malvinas", "label_rank": 5 }, "geometry": { "type": "Point", "coordinates": [ -58.738602, -51.608913 ] } },
{ "type": "Feature", "properties": { "class": "country", "iso_a2": "KY", "name": "Cayman Islands", "label_rank": 5 }, "geometry": { "type": "Point", "coordinates": [ -81.24055, 19.319862 ] } },
{ "type": "Feature", "properties": { "class": "country", "iso_a2": "BM", "name": "Bermuda", "label_rank": 6 }, "geometry": { "type": "Point", "coordinates": [ -64.763573, 32.296592 ] } },
{ "type": "Feature", "properties": { "class": "country", "iso_a2": "VG", "name": "British Virgin Islands", "label_rank": 6 }, "geometry": { "type": "Point", "coordinates": [ -64.63661, 18.426606 ] } },
{ "type": "Feature", "properties": { "class": "country", "iso_a2": "TC", "name": "Turks and Caicos Islands", "label_rank": 6 }, "geometry": { "type": "Point", "coordinates": [ -71.752704, 21.81663 ] } },
{ "type": "Feature", "properties": { "class": "country", "iso_a2": "MS", "name": "Montserrat", "label_rank": 6 }, "geometry": { "type": "Point", "coordinates": [ -62.188252, 16.73717 ] } },
{ "type": "Feature", "properties": { "class": "country", "iso_a2": "JE", "name": "Jersey", "label_rank": 6 }, "geometry": { "type": "Point", "coordinates": [ -2.090146, 49.220808 ] } },
{ "type": "Feature", "properties": { "class": "country", "iso_a2": "GG", "name": "Guernsey", "label_rank": 6 }, "geometry": { "type": "Point", "coordinates": [ -2.561736, 49.463533 ] } },
{ "type": "Feature", "properties": { "class": "country", "iso_a2": "IM", "name": "Isle of Man", "label_rank": 6 }, "geometry": { "type": "Point", "coordinates": [ -4.530069, 54.220833 ] } },
{ "type": "Feature", "properties": { "class": "country", "iso_a2": "GB", "name": "United Kingdom", "label_rank": 2 }, "geometry": { "type": "Point", "coordinates": [ -2.116346, 54.402739 ] } },
{ "type": "Feature", "properties": { "class": "country", "iso_a2": "AE", "name": "United Arab Emirates", "label_rank": 4 }, "geometry": { "type": "Point", "coordinates": [ 54.547256, 23.466285 ] } },
{ "type": "Feature", "properties": { "class": "country", "iso_a2": "UA", "name": "Ukraine", "label_rank": 3 }, "geometry": { "type": "Point", "coordinates": [ 32.140865, 49.724739 ] } },
{ "type": "Feature", "properties": { "class": "country", "iso_a2": "UG", "name": "Uganda", "label_rank": 3 }, "geometry": { "type": "Point", "coordinates": [ 32.948555, 1.972589 ] } },
{ "type": "Feature", "properties": { "class": "country", "iso_a2": "TM", "name": "Turkmenistan", "label_rank": 4 }, "geometry": { "type": "Point", "coordinates": [ 58.676647, 39.855246 ] } },
{ "type": "Feature", "properties": { "class": "country", "iso_a2": "TR", "name": "Turkey", "label_rank": 2 }, "geometry": { "type": "Point", "coordinates": [ 34.508268, 39.345388 ] } },
{ "type": "Feature", "properties": { "class": "country", "iso_a2": "TN", "name": "Tunisia", "label_rank": 3 }, "geometry": { "type": "Point", "coordinates": [ 9.007881, 33.687263 ] } },
{ "type": "Feature", "properties": { "class": "country", "iso_a2": "TT", "name": "Trinidad and Tobago", "label_rank": 5 }, "geometry": { "type": "Point", "coordinates": [ -60.9184, 10.9989 ] } },
{ "type": "Feature", "properties": { "class": "country", "iso_a2": "TO", "name": "Tonga", "label_rank": 4 }, "geometry": { "type": "Point", "coordinates": [ -175.163014, -21.210026 ] } },
{ "type": "Feature", "properties": { "class": "country", "iso_a2": "TG", "name": "Togo", "label_rank": 6 }, "geometry": { "type": "Point", "coordinates": [ 1.058113, 8.80722 ] } },
{ "type": "Feature", "properties": { "class": "country", "iso_a2": "TL", "name": "Timor-Leste", "label_rank": 5 }, "geometry": { "type": "Point", "coordinates": [ 125.854679, -8.803705 ] } },
{ "type": "Feature", "properties": { "class": "country", "iso_a2": "TH", "name": "Thailand", "label_rank": 3 }, "geometry": { "type": "Point", "coordinates": [ 101.073198, 15.45974 ] } },
{ "type": "Feature", "properties": { "class": "country", "iso_a2": "TZ", "name": "Tanzania", "label_rank": 3 }, "geometry": { "type": "Point", "coordinates": [ 34.959183, -6.051866 ] } },
{ "type": "Feature", "properties": { "class": "country", "iso_a2": "TJ", "name": "Tajikistan", "label_rank": 4 }, "geometry": { "type": "Point", "coordinates": [ 72.587276, 38.199835 ] } },
{ "type": "Feature", "properties": { "class": "country", "iso_a2": "CN-TW", "name": "Taiwan", "label_rank": 3 }, "geometry": { "type": "Point", "coordinates": [ 120.868204, 23.652408 ] } },
{ "type": "Feature", "properties": { "class": "country", "iso_a2": "SY", "name": "Syria", "label_rank": 3 }, "geometry": { "type": "Point", "coordinates": [ 38.277783, 35.006636 ] } },
{ "type": "Feature", "properties": { "class": "country", "iso_a2": "CH", "name": "Switzerland", "label_rank": 4 }, "geometry": { "type": "Point", "coordinates": [ 7.463965, 46.719114 ] } },
{ "type": "Feature", "properties": { "class": "country", "iso_a2": "SE", "name": "Sweden", "label_rank": 3 }, "geometry": { "type": "Point", "coordinates": [ 19.01705, 65.85918 ] } },
{ "type": "Feature", "properties": { "class": "country", "iso_a2": "SZ", "name": "Kingdom of eSwatini", "label_rank": 4 }, "geometry": { "type": "Point", "coordinates": [ 31.467264, -26.533676 ] } },
{ "type": "Feature", "properties": { "class": "country", "iso_a2": "SR", "name": "Suriname", "label_rank": 4 }, "geometry": { "type": "Point", "coordinates": [ -55.91094, 4.143987 ] } },
{ "type": "Feature", "properties": { "class": "country", "iso_a2": "SS", "name": "South Sudan", "label_rank": 3 }, "geometry": { "type": "Point", "coordinates": [ 30.390151, 7.230477 ] } },
{ "type": "Feature", "properties": { "class": "country", "iso_a2": "SD", "name": "Sudan", "label_rank": 3 }, "geometry": { "type": "Point", "coordinates": [ 29.260657, 16.330746 ] } },
{ "type": "Feature", "properties": { "class": "country", "iso_a2": "LK", "name": "Sri Lanka", "label_rank": 3 }, "geometry": { "type": "Point", "coordinates": [ 80.704823, 7.581097 ] } },
{ "type": "Feature", "properties": { "class": "country", "iso_a2": "ES", "name": "Spain", "label_rank": 2 }, "geometry": { "type": "Point", "coordinates": [ -3.464718, 40.090953 ] } },
{ "type": "Feature", "properties": { "class": "country", "iso_a2": "KR", "name": "Republic of Korea", "label_rank": 2 }, "geometry": { "type": "Point", "coordinates": [ 128.129504, 36.384924 ] } },
{ "type": "Feature", "properties": { "class": "country", "iso_a2": "ZA", "name": "South Africa", "label_rank": 2 }, "geometry": { "type": "Point", "coordinates": [ 23.665734, -29.708776 ] } },
{ "type": "Feature", "properties": { "class": "country", "iso_a2": "SO", "name": "Somalia", "label_rank": 6 }, "geometry": { "type": "Point", "coordinates": [ 45.19238, 3.568925 ] } },
{ "type": "Feature", "properties": { "class": "country", "iso_a2": "-99", "name": "Somaliland", "label_rank": 5 }, "geometry": { "type": "Point", "coordinates": [ 46.731595, 9.443889 ] } },
{ "type": "Feature", "properties": { "class": "country", "iso_a2": "SB", "name": "Solomon Islands", "label_rank": 3 }, "geometry": { "type": "Point", "coordinates": [ 159.170468, -8.029548 ] } },
{ "type": "Feature", "properties": { "class": "country", "iso_a2": "SK", "name": "Slovakia", "label_rank": 6 }, "geometry": { "type": "Point", "coordinates": [ 19.049868, 48.734044 ] } },
{ "type": "Feature", "properties": { "class": "country", "iso_a2": "SI", "name": "Slovenia", "label_rank": 6 }, "geometry": { "type": "Point", "coordinates": [ 14.915312, 46.06076 ] } },
{ "type": "Feature", "properties": { "class": "country", "iso_a2": "SG", "name": "Singapore", "label_rank": 6 }, "geometry": { "type": "Point", "coordinates": [ 103.816925, 1.366587 ] } },
{ "type": "Feature", "properties": { "class": "country", "iso_a2": "SL", "name": "Sierra Leone", "label_rank": 4 }, "geometry": { "type": "Point", "coordinates": [ -11.763677, 8.617449 ] } },
{ "type": "Feature", "properties": { "class": "country", "iso_a2": "SC", "name": "Seychelles", "label_rank": 6 }, "geometry": { "type": "Point", "coordinates": [ 55.480175, -4.676659 ] } },
{ "type": "Feature", "properties": { "class": "country", "iso_a2": "RS", "name": "Serbia", "label_rank": 5 }, "geometry": { "type": "Point", "coordinates": [ 20.787989, 44.189919 ] } },
{ "type": "Feature", "properties": { "class": "country", "iso_a2": "SN", "name": "Senegal", "label_rank": 3 }, "geometry": { "type": "Point", "coordinates": [ -14.778586, 15.138125 ] } },
{ "type": "Feature", "properties": { "class": "country", "iso_a2": "SA", "name": "Saudi Arabia", "label_rank": 2 }, "geometry": { "type": "Point", "coordinates": [ 44.6996, 23.806908 ] } },
{ "type": "Feature", "properties": { "class": "country", "iso_a2": "ST", "name": "São Tomé and Principe", "label_rank": 6 }, "geometry": { "type": "Point", "coordinates": [ 7.021, 0.9709 ] } },
{ "type": "Feature", "properties": { "class": "country", "iso_a2": "SM", "name": "San Marino", "label_rank": 6 }, "geometry": { "type": "Point", "coordinates": [ 12.441206, 43.933916 ] } },
{ "type": "Feature", "properties": { "class": "country", "iso_a2": "WS", "name": "Samoa", "label_rank": 4 }, "geometry": { "type": "Point", "coordinates": [ -172.438241, -13.639139 ] } },
{ "type": "Feature", "properties": { "class": "country", "iso_a2": "VC", "name": "Saint Vincent and the Grenadines", "label_rank": 6 }, "geometry": { "type": "Point", "coordinates": [ -61.3359, 13.0879 ] } },
{ "type": "Feature", "properties": { "class": "country", "iso_a2": "LC", "name": "Saint Lucia", "label_rank": 6 }, "geometry": { "type": "Point", "coordinates": [ -60.980094, 13.892371 ] } },
{ "type": "Feature", "properties": { "class": "country", "iso_a2": "KN", "name": "Saint Kitts and Nevis", "label_rank": 6 }, "geometry": { "type": "Point", "coordinates": [ -62.757975, 17.336558 ] } },
{ "type": "Feature", "properties": { "class": "country", "iso_a2": "RW", "name": "Rwanda", "label_rank": 3 }, "geometry": { "type": "Point", "coordinates": [ 30.103894, -1.897196 ] } },
{ "type": "Feature", "properties": { "class": "country", "iso_a2": "RU", "name": "Russian Federation", "label_rank": 2 }, "geometry": { "type": "Point", "coordinates": [ 44.686469, 58.249357 ] } },
{ "type": "Feature", "properties": { "class": "country", "iso_a2": "RO", "name": "Romania", "label_rank": 3 }, "geometry": { "type": "Point", "coordinates": [ 24.972624, 45.733237 ] } },
{ "type": "Feature", "properties": { "class": "country", "iso_a2": "QA", "name": "Qatar", "label_rank": 5 }, "geometry": { "type": "Point", "coordinates": [ 51.143509, 25.237383 ] } },
{ "type": "Feature", "properties": { "class": "country", "iso_a2": "PT", "name": "Portugal", "label_rank": 2 }, "geometry": { "type": "Point", "coordinates": [ -8.271754, 39.606675 ] } },
{ "type": "Feature", "properties": { "class": "country", "iso_a2": "PL", "name": "Poland", "label_rank": 3 }, "geometry": { "type": "Point", "coordinates": [ 19.490468, 51.990316 ] } },
{ "type": "Feature", "properties": { "class": "country", "iso_a2": "PH", "name": "Philippines", "label_rank": 2 }, "geometry": { "type": "Point", "coordinates": [ 122.465, 11.198 ] } },
{ "type": "Feature", "properties": { "class": "country", "iso_a2": "PE", "name": "Peru", "label_rank": 2 }, "geometry": { "type": "Point", "coordinates": [ -72.90016, -12.976679 ] } },
{ "type": "Feature", "properties": { "class": "country", "iso_a2": "PY", "name": "Paraguay", "label_rank": 4 }, "geometry": { "type": "Point", "coordinates": [ -60.146394, -21.674509 ] } },
{ "type": "Feature", "properties": { "class": "country", "iso_a2": "PG", "name": "Papua New Guinea", "label_rank": 2 }, "geometry": { "type": "Point", "coordinates": [ 143.910216, -5.695285 ] } },
{ "type": "Feature", "properties": { "class": "country", "iso_a2": "PA", "name": "Panama", "label_rank": 4 }, "geometry": { "type": "Point", "coordinates": [ -80.352106, 8.72198 ] } },
{ "type": "Feature", "properties": { "class": "country", "iso_a2": "PW", "name": "Palau", "label_rank": 6 }, "geometry": { "type": "Point", "coordinates": [ 134.580157, 7.518252 ] } },
{ "type": "Feature", "properties": { "class": "country", "iso_a2": "PK", "name": "Pakistan", "label_rank": 2 }, "geometry": { "type": "Point", "coordinates": [ 68.545632, 29.328389 ] } },
{ "type": "Feature", "properties": { "class": "country", "iso_a2": "OM", "name": "Oman", "label_rank": 4 }, "geometry": { "type": "Point", "coordinates": [ 57.336553, 22.120427 ] } },
{ "type": "Feature", "properties": { "class": "country", "iso_a2": "-99", "name": "Norway", "label_rank": 3 }, "geometry": { "type": "Point", "coordinates": [ 9.679975, 61.357092 ] } },
{ "type": "Feature", "properties": { "class": "country", "iso_a2": "KP", "name": "Dem. Rep. Korea", "label_rank": 3 }, "geometry": { "type": "Point", "coordinates": [ 126.444516, 39.885252 ] } },
{ "type": "Feature", "properties": { "class": "country", "iso_a2": "NG", "name": "Nigeria", "label_rank": 2 }, "geometry": { "type": "Point", "coordinates": [ 7.50322, 9.439799 ] } },
{ "type": "Feature", "properties": { "class": "country", "iso_a2": "NE", "name": "Niger", "label_rank": 3 }, "geometry": { "type": "Point", "coordinates": [ 9.504356, 17.446195 ] } },
{ "type": "Feature", "properties": { "class": "country", "iso_a2": "NI", "name": "Nicaragua", "label_rank": 5 }, "geometry": { "type": "Point", "coordinates": [ -85.069347, 12.670697 ] } },
{ "type": "Feature", "properties": { "class": "country", "iso_a2": "NZ", "name": "New Zealand", "label_rank": 2 }, "geometry": { "type": "Point", "coordinates": [ 172.787, -39.759 ] } },
{ "type": "Feature", "properties": { "class": "country", "iso_a2": "NU", "name": "Niue", "label_rank": 4 }, "geometry": { "type": "Point", "coordinates": [ -169.862565, -19.045956 ] } },
{ "type": "Feature", "properties": { "class": "country", "iso_a2": "CK", "name": "Cook Islands", "label_rank": 4 }, "geometry": { "type": "Point", "coordinates": [ -159.785675, -21.215993 ] } },
{ "type": "Feature", "properties": { "class": "country", "iso_a2": "NL", "name": "Netherlands", "label_rank": 5 }, "geometry": { "type": "Point", "coordinates": [ 5.61144, 52.422211 ] } },
{ "type": "Feature", "properties": { "class": "country", "iso_a2": "AW", "name": "Aruba", "label_rank": 5 }, "geometry": { "type": "Point", "coordinates": [ -69.972795, 12.5174 ] } },
{ "type": "Feature", "properties": { "class": "country", "iso_a2": "CW", "name": "Curaçao", "label_rank": 5 }, "geometry": { "type": "Point", "coordinates": [ -68.920578, 12.145039 ] } },
{ "type": "Feature", "properties": { "class": "country", "iso_a2": "NP", "name": "Nepal", "label_rank": 3 }, "geometry": { "type": "Point", "coordinates": [ 83.639914, 28.297925 ] } },
{ "type": "Feature", "properties": { "class": "country", "iso_a2": "NR", "name": "Nauru", "label_rank": 6 }, "geometry": { "type": "Point", "coordinates": [ 166.932644, -0.520261 ] } },
{ "type": "Feature", "properties": { "class": "country", "iso_a2": "NA", "name": "Namibia", "label_rank": 3 }, "geometry": { "type": "Point", "coordinates": [ 17.108166, -20.575298 ] } },
{ "type": "Feature", "properties": { "class": "country", "iso_a2": "MZ", "name": "Mozambique", "label_rank": 3 }, "geometry": { "type": "Point", "coordinates": [ 37.83789, -13.94323 ] } },
{ "type": "Feature", "properties": { "class": "country", "iso_a2": "MA", "name": "Morocco", "label_rank": 3 }, "geometry": { "type": "Point", "coordinates": [ -7.187296, 31.650723 ] } },
{ "type": "Feature", "properties": { "class": "country", "iso_a2": "EH", "name": "Western Sahara", "label_rank": 7 }, "geometry": { "type": "Point", "coordinates": [ -12.630304, 23.967592 ] } },
{ "type": "Feature", "properties": { "class": "country", "iso_a2": "ME", "name": "Montenegro", "label_rank": 6 }, "geometry": { "type": "Point", "coordinates": [ 19.143727, 42.803101 ] } },
{ "type": "Feature", "properties": { "class": "country", "iso_a2": "MN", "name": "Mongolia", "label_rank": 3 }, "geometry": { "type": "Point", "coordinates": [ 104.150405, 45.997488 ] } },
{ "type": "Feature", "properties": { "class": "country", "iso_a2": "MD", "name": "Moldova", "label_rank": 6 }, "geometry": { "type": "Point", "coordinates": [ 28.487904, 47.434999 ] } },
{ "type": "Feature", "properties": { "class": "country", "iso_a2": "MC", "name": "Monaco", "label_rank": 6 }, "geometry": { "type": "Point", "coordinates": [ 7.398291, 43.739652 ] } },
{ "type": "Feature", "properties": { "class": "country", "iso_a2": "MX", "name": "Mexico", "label_rank": 2 }, "geometry": { "type": "Point", "coordinates": [ -102.289448, 23.919988 ] } },
{ "type": "Feature", "properties": { "class": "country", "iso_a2": "MU", "name": "Mauritius", "label_rank": 5 }, "geometry": { "type": "Point", "coordinates": [ 57.565848, -20.299506 ] } },
{ "type": "Feature", "properties": { "class": "country", "iso_a2": "MR", "name": "Mauritania", "label_rank": 3 }, "geometry": { "type": "Point", "coordinates": [ -9.740299, 19.587062 ] } },
{ "type": "Feature", "properties": { "class": "country", "iso_a2": "MT", "name": "Malta", "label_rank": 5 }, "geometry": { "type": "Point", "coordinates": [ 14.433005, 35.892886 ] } },
{ "type": "Feature", "properties": { "class": "country", "iso_a2": "ML", "name": "Mali", "label_rank": 3 }, "geometry": { "type": "Point", "coordinates": [ -2.038455, 18.692713 ] } },
{ "type": "Feature", "properties": { "class": "country", "iso_a2": "MV", "name": "Maldives", "label_rank": 5 }, "geometry": { "type": "Point", "coordinates": [ 73.507554, 4.174441 ] } },
{ "type": "Feature", "properties": { "class": "country", "iso_a2": "MY", "name": "Malaysia", "label_rank": 3 }, "geometry": { "type": "Point", "coordinates": [ 113.83708, 2.528667 ] } },
{ "type": "Feature", "properties": { "class": "country", "iso_a2": "MW", "name": "Malawi", "label_rank": 6 }, "geometry": { "type": "Point", "coordinates": [ 33.608082, -13.386737 ] } },
{ "type": "Feature", "properties": { "class": "country", "iso_a2": "MG", "name": "Madagascar", "label_rank": 3 }, "geometry": { "type": "Point", "coordinates": [ 46.704241, -18.628288 ] } },
{ "type": "Feature", "properties": { "class": "country", "iso_a2": "MK", "name": "North Macedonia", "label_rank": 6 }, "geometry": { "type": "Point", "coordinates": [ 21.555839, 41.558223 ] } },
{ "type": "Feature", "properties": { "class": "country", "iso_a2": "LU", "name": "Luxembourg", "label_rank": 6 }, "geometry": { "type": "Point", "coordinates": [ 6.07762, 49.733732 ] } },
{ "type": "Feature", "properties": { "class": "country", "iso_a2": "LT", "name": "Lithuania", "label_rank": 5 }, "geometry": { "type": "Point", "coordinates": [ 24.089932, 55.103703 ] } },
{ "type": "Feature", "properties": { "class": "country", "iso_a2": "LI", "name": "Liechtenstein", "label_rank": 6 }, "geometry": { "type": "Point", "coordinates": [ 9.559439, 47.111405 ] } },
{ "type": "Feature", "properties": { "class": "country", "iso_a2": "LY", "name": "Libya", "label_rank": 3 }, "geometry": { "type": "Point", "coordinates": [ 18.011015, 26.638944 ] } },
{ "type": "Feature", "properties": { "class": "country", "iso_a2": "LR", "name": "Liberia", "label_rank": 4 }, "geometry": { "type": "Point", "coordinates": [ -9.460379, 6.447177 ] } },
{ "type": "Feature", "properties": { "class": "country", "iso_a2": "LS", "name": "Lesotho", "label_rank": 6 }, "geometry": { "type": "Point", "coordinates": [ 28.246639, -29.480158 ] } },
{ "type": "Feature", "properties": { "class": "country", "iso_a2": "LB", "name": "Lebanon", "label_rank": 5 }, "geometry": { "type": "Point", "coordinates": [ 35.992892, 34.133368 ] } },
{ "type": "Feature", "properties": { "class": "country", "iso_a2": "LV", "name": "Latvia", "label_rank": 5 }, "geometry": { "type": "Point", "coordinates": [ 25.458723, 57.066872 ] } },
{ "type": "Feature", "properties": { "class": "country", "iso_a2": "LA", "name": "Lao PDR", "label_rank": 4 }, "geometry": { "type": "Point", "coordinates": [ 102.533912, 19.431821 ] } },
{ "type": "Feature", "properties": { "class": "country", "iso_a2": "KG", "name": "Kyrgyzstan", "label_rank": 4 }, "geometry": { "type": "Point", "coordinates": [ 74.532637, 41.66854 ] } },
{ "type": "Feature", "properties": { "class": "country", "iso_a2": "KW", "name": "Kuwait", "label_rank": 6 }, "geometry": { "type": "Point", "coordinates": [ 47.313999, 29.413628 ] } },
{ "type": "Feature", "properties": { "class": "country", "iso_a2": "-99", "name": "Kosovo", "label_rank": 6 }, "geometry": { "type": "Point", "coordinates": [ 20.860719, 42.593587 ] } },
{ "type": "Feature", "properties": { "class": "country", "iso_a2": "KI", "name": "Kiribati", "label_rank": 6 }, "geometry": { "type": "Point", "coordinates": [ -157.384577, 1.820437 ] } },
{ "type": "Feature", "properties": { "class": "country", "iso_a2": "KE", "name": "Kenya", "label_rank": 2 }, "geometry": { "type": "Point", "coordinates": [ 37.907632, 0.549043 ] } },
{ "type": "Feature", "properties": { "class": "country", "iso_a2": "KZ", "name": "Kazakhstan", "label_rank": 3 }, "geometry": { "type": "Point", "coordinates": [ 68.685548, 49.054149 ] } },
{ "type": "Feature", "properties": { "class": "country", "iso_a2": "JO", "name": "Jordan", "label_rank": 4 }, "geometry": { "type": "Point", "coordinates": [ 36.375991, 30.805025 ] } },
{ "type": "Feature", "properties": { "class": "country", "iso_a2": "JP", "name": "Japan", "label_rank": 2 }, "geometry": { "type": "Point", "coordinates": [ 138.44217, 36.142538 ] } },
{ "type": "Feature", "properties": { "class": "country", "iso_a2": "JM", "name": "Jamaica", "label_rank": 4 }, "geometry": { "type": "Point", "coordinates": [ -77.318767, 18.137124 ] } },
{ "type": "Feature", "properties": { "class": "country", "iso_a2": "IT", "name": "Italy", "label_rank": 2 }, "geometry": { "type": "Point", "coordinates": [ 11.076907, 44.732482 ] } },
{ "type": "Feature", "properties": { "class": "country", "iso_a2": "IL", "name": "Israel", "label_rank": 4 }, "geometry": { "type": "Point", "coordinates": [ 34.847915, 30.911148 ] } },
{ "type": "Feature", "properties": { "class": "country", "iso_a2": "PS", "name": "Palestine", "label_rank": 5 }, "geometry": { "type": "Point", "coordinates": [ 35.291341, 32.047431 ] } },
{ "type": "Feature", "properties": { "class": "country", "iso_a2": "IE", "name": "Ireland", "label_rank": 3 }, "geometry": { "type": "Point", "coordinates": [ -7.798588, 53.078726 ] } },
{ "type": "Feature", "properties": { "class": "country", "iso_a2": "IQ", "name": "Iraq", "label_rank": 3 }, "geometry": { "type": "Point", "coordinates": [ 43.26181, 33.09403 ] } },
{ "type": "Feature", "properties": { "class": "country", "iso_a2": "IR", "name": "Iran", "label_rank": 2 }, "geometry": { "type": "Point", "coordinates": [ 54.931495, 32.166225 ] } },
{ "type": "Feature", "properties": { "class": "country", "iso_a2": "ID", "name": "Indonesia", "label_rank": 2 }, "geometry": { "type": "Point", "coordinates": [ 101.892949, -0.954404 ] } },
{ "type": "Feature", "properties": { "class": "country", "iso_a2": "IN", "name": "India", "label_rank": 2 }, "geometry": { "type": "Point", "coordinates": [ 79.358105, 22.686852 ] } },
{ "type": "Feature", "properties": { "class": "country", "iso_a2": "IS", "name": "Iceland", "label_rank": 3 }, "geometry": { "type": "Point", "coordinates": [ -18.673711, 64.779286 ] } },
{ "type": "Feature", "properties": { "class": "country", "iso_a2": "HU", "name": "Hungary", "label_rank": 5 }, "geometry": { "type": "Point", "coordinates": [ 19.447867, 47.086841 ] } },
{ "type": "Feature", "properties": { "class": "country", "iso_a2": "HN", "name": "Honduras", "label_rank": 5 }, "geometry": { "type": "Point", "coordinates": [ -86.887604, 14.794801 ] } },
{ "type": "Feature", "properties": { "class": "country", "iso_a2": "HT", "name": "Haiti", "label_rank": 5 }, "geometry": { "type": "Point", "coordinates": [ -72.224051, 19.263784 ] } },
{ "type": "Feature", "properties": { "class": "country", "iso_a2": "GY", "name": "Guyana", "label_rank": 4 }, "geometry": { "type": "Point", "coordinates": [ -58.942643, 5.124317 ] } },
{ "type": "Feature", "properties": { "class": "country", "iso_a2": "GW", "name": "Guinea-Bissau", "label_rank": 6 }, "geometry": { "type": "Point", "coordinates": [ -14.52413, 12.163712 ] } },
{ "type": "Feature", "properties": { "class": "country", "iso_a2": "GN", "name": "Guinea", "label_rank": 3 }, "geometry": { "type": "Point", "coordinates": [ -10.016402, 10.618516 ] } },
{ "type": "Feature", "properties": { "class": "country", "iso_a2": "GT", "name": "Guatemala", "label_rank": 3 }, "geometry": { "type": "Point", "coordinates": [ -90.497134, 14.982133 ] } },
{ "type": "Feature", "properties": { "class": "country", "iso_a2": "GD", "name": "Grenada", "label_rank": 6 }, "geometry": { "type": "Point", "coordinates": [ -61.680461, 12.113156 ] } },
{ "type": "Feature", "properties": { "class": "country", "iso_a2": "GR", "name": "Greece", "label_rank": 3 }, "geometry": { "type": "Point", "coordinates": [ 21.72568, 39.492763 ] } },
{ "type": "Feature", "properties": { "class": "country", "iso_a2": "GH", "name": "Ghana", "label_rank": 3 }, "geometry": { "type": "Point", "coordinates": [ -1.036941, 7.717639 ] } },
{ "type": "Feature", "properties": { "class": "country", "iso_a2": "DE", "name": "Germany", "label_rank": 2 }, "geometry": { "type": "Point", "coordinates": [ 9.678348, 50.961733 ] } },
{ "type": "Feature", "properties": { "class": "country", "iso_a2": "GE", "name": "Georgia", "label_rank": 5 }, "geometry": { "type": "Point", "coordinates": [ 43.735724, 41.870087 ] } },
{ "type": "Feature", "properties": { "class": "country", "iso_a2": "GM", "name": "The Gambia", "label_rank": 6 }, "geometry": { "type": "Point", "coordinates": [ -14.998318, 13.641721 ] } },
{ "type": "Feature", "properties": { "class": "country", "iso_a2": "GA", "name": "Gabon", "label_rank": 4 }, "geometry": { "type": "Point", "coordinates": [ 11.835939, -0.437739 ] } },
{ "type": "Feature", "properties": { "class": "country", "iso_a2": "-99", "name": "France", "label_rank": 2 }, "geometry": { "type": "Point", "coordinates": [ 2.552275, 46.696113 ] } },
{ "type": "Feature", "properties": { "class": "country", "iso_a2": "PM", "name": "Saint Pierre and Miquelon", "label_rank": 4 }, "geometry": { "type": "Point", "coordinates": [ -56.332352, 47.040344 ] } },
{ "type": "Feature", "properties": { "class": "country", "iso_a2": "WF", "name": "Wallis and Futuna Islands", "label_rank": 4 }, "geometry": { "type": "Point", "coordinates": [ -178.137436, -14.286415 ] } },
{ "type": "Feature", "properties": { "class": "country", "iso_a2": "MF", "name": "Saint-Martin", "label_rank": 6 }, "geometry": { "type": "Point", "coordinates": [ -63.049399, 18.081302 ] } },
{ "type": "Feature", "properties": { "class": "country", "iso_a2": "BL", "name": "Saint-Barthélemy", "label_rank": 6 }, "geometry": { "type": "Point", "coordinates": [ -62.833193, 17.901987 ] } },
{ "type": "Feature", "properties": { "class": "country", "iso_a2": "PF", "name": "French Polynesia", "label_rank": 4 }, "geometry": { "type": "Point", "coordinates": [ -149.46157, -17.628081 ] } },
{ "type": "Feature", "properties": { "class": "country", "iso_a2": "NC", "name": "New Caledonia", "label_rank": 3 }, "geometry": { "type": "Point", "coordinates": [ 165.084004, -21.064697 ] } },
{ "type": "Feature", "properties": { "class": "country", "iso_a2": "TF", "name": "French Southern and Antarctic Lands", "label_rank": 6 }, "geometry": { "type": "Point", "coordinates": [ 69.122136, -49.303721 ] } },
{ "type": "Feature", "properties": { "class": "country", "iso_a2": "AX", "name": "Åland Islands", "label_rank": 6 }, "geometry": { "type": "Point", "coordinates": [ 19.869671, 60.156467 ] } },
{ "type": "Feature", "properties": { "class": "country", "iso_a2": "FI", "name": "Finland", "label_rank": 3 }, "geometry": { "type": "Point", "coordinates": [ 27.276449, 63.252361 ] } },
{ "type": "Feature", "properties": { "class": "country", "iso_a2": "FJ", "name": "Fiji", "label_rank": 6 }, "geometry": { "type": "Point", "coordinates": [ 177.975427, -17.826099 ] } },
{ "type": "Feature", "properties": { "class": "country", "iso_a2": "ET", "name": "Ethiopia", "label_rank": 2 }, "geometry": { "type": "Point", "coordinates": [ 39.0886, 8.032795 ] } },
{ "type": "Feature", "properties": { "class": "country", "iso_a2": "EE", "name": "Estonia", "label_rank": 6 }, "geometry": { "type": "Point", "coordinates": [ 25.867126, 58.724865 ] } },
{ "type": "Feature", "properties": { "class": "country", "iso_a2": "ER", "name": "Eritrea", "label_rank": 4 }, "geometry": { "type": "Point", "coordinates": [ 38.285566, 15.787401 ] } },
{ "type": "Feature", "properties": { "class": "country", "iso_a2": "GQ", "name": "Equatorial Guinea", "label_rank": 4 }, "geometry": { "type": "Point", "coordinates": [ 8.9902, 2.333 ] } },
{ "type": "Feature", "properties": { "class": "country", "iso_a2": "SV", "name": "El Salvador", "label_rank": 6 }, "geometry": { "type": "Point", "coordinates": [ -88.890124, 13.685371 ] } },
{ "type": "Feature", "properties": { "class": "country", "iso_a2": "EG", "name": "Egypt", "label_rank": 2 }, "geometry": { "type": "Point", "coordinates": [ 29.445837, 26.186173 ] } },
{ "type": "Feature", "properties": { "class": "country", "iso_a2": "EC", "name": "Ecuador", "label_rank": 3 }, "geometry": { "type": "Point", "coordinates": [ -78.188375, -1.259076 ] } },
{ "type": "Feature", "properties": { "class": "country", "iso_a2": "DO", "name": "Dominican Republic", "label_rank": 5 }, "geometry": { "type": "Point", "coordinates": [ -70.653998, 19.104137 ] } },
{ "type": "Feature", "properties": { "class": "country", "iso_a2": "DM", "name": "Dominica", "label_rank": 6 }, "geometry": { "type": "Point", "coordinates": [ -61.344958, 15.458829 ] } },
{ "type": "Feature", "properties": { "class": "country", "iso_a2": "DJ", "name": "Djibouti", "label_rank": 5 }, "geometry": { "type": "Point", "coordinates": [ 42.498825, 11.976343 ] } },
{ "type": "Feature", "properties": { "class": "country", "iso_a2": "GL", "name": "Greenland", "label_rank": 3 }, "geometry": { "type": "Point", "coordinates": [ -39.335251, 74.319387 ] } },
{ "type": "Feature", "properties": { "class": "country", "iso_a2": "FO", "name": "Faeroe Islands", "label_rank": 6 }, "geometry": { "type": "Point", "coordinates": [ -7.058429, 62.185604 ] } },
{ "type": "Feature", "properties": { "class": "country", "iso_a2": "DK", "name": "Denmark", "label_rank": 4 }, "geometry": { "type": "Point", "coordinates": [ 9.018163, 55.966965 ] } },
{ "type": "Feature", "properties": { "class": "country", "iso_a2": "CZ", "name": "Czech Republic", "label_rank": 5 }, "geometry": { "type": "Point", "coordinates": [ 15.377555, 49.882364 ] } },
{ "type": "Feature", "properties": { "class": "country", "iso_a2": "-99", "name": "Northern Cyprus", "label_rank": 6 }, "geometry": { "type": "Point", "coordinates": [ 33.692434, 35.216071 ] } },
{ "type": "Feature", "properties": { "class": "country", "iso_a2": "CY", "name": "Cyprus", "label_rank": 5 }, "geometry": { "type": "Point", "coordinates": [ 33.084182, 34.913329 ] } },
{ "type": "Feature", "properties": { "class": "country", "iso_a2": "CU", "name": "Cuba", "label_rank": 3 }, "geometry": { "type": "Point", "coordinates": [ -77.975855, 21.334024 ] } },
{ "type": "Feature", "properties": { "class": "country", "iso_a2": "HR", "name": "Croatia", "label_rank": 6 }, "geometry": { "type": "Point", "coordinates": [ 16.37241, 45.805799 ] } },
{ "type": "Feature", "properties": { "class": "country", "iso_a2": "CI", "name": "Côte d'Ivoire", "label_rank": 3 }, "geometry": { "type": "Point", "coordinates": [ -5.568618, 7.49139 ] } },
{ "type": "Feature", "properties": { "class": "country", "iso_a2": "CR", "name": "Costa Rica", "label_rank": 5 }, "geometry": { "type": "Point", "coordinates": [ -84.077922, 10.0651 ] } },
{ "type": "Feature", "properties": { "class": "country", "iso_a2": "CD", "name": "Democratic Republic of the Congo", "label_rank": 2 }, "geometry": { "type": "Point", "coordinates": [ 23.458829, -1.858167 ] } },
{ "type": "Feature", "properties": { "class": "country", "iso_a2": "CG", "name": "Republic of the Congo", "label_rank": 4 }, "geometry": { "type": "Point", "coordinates": [ 15.9005, 0.142331 ] } },
{ "type": "Feature", "properties": { "class": "country", "iso_a2": "KM", "name": "Comoros", "label_rank": 6 }, "geometry": { "type": "Point", "coordinates": [ 43.318094, -11.727683 ] } },
{ "type": "Feature", "properties": { "class": "country", "iso_a2": "CO", "name": "Colombia", "label_rank": 2 }, "geometry": { "type": "Point", "coordinates": [ -73.174347, 3.373111 ] } },
{ "type": "Feature", "properties": { "class": "country", "iso_a2": "CN", "name": "China", "label_rank": 2 }, "geometry": { "type": "Point", "coordinates": [ 106.337289, 32.498178 ] } },
{ "type": "Feature", "properties": { "class": "country", "iso_a2": "MO", "name": "Macao", "label_rank": 4 }, "geometry": { "type": "Point", "coordinates": [ 113.556038, 22.129735 ] } },
{ "type": "Feature", "properties": { "class": "country", "iso_a2": "HK", "name": "Hong Kong", "label_rank": 4 }, "geometry": { "type": "Point", "coordinates": [ 114.097769, 22.448829 ] } },
{ "type": "Feature", "properties": { "class": "country", "iso_a2": "CL", "name": "Chile", "label_rank": 2 }, "geometry": { "type": "Point", "coordinates": [ -72.318871, -38.151771 ] } },
{ "type": "Feature", "properties": { "class": "country", "iso_a2": "TD", "name": "Chad", "label_rank": 3 }, "geometry": { "type": "Point", "coordinates": [ 18.645041, 15.142959 ] } },
{ "type": "Feature", "properties": { "class": "country", "iso_a2": "CF", "name": "Central African Republic", "label_rank": 4 }, "geometry": { "type": "Point", "coordinates": [ 20.906897, 6.989681 ] } },
{ "type": "Feature", "properties": { "class": "country", "iso_a2": "CV", "name": "Republic of Cabo Verde", "label_rank": 4 }, "geometry": { "type": "Point", "coordinates": [ -23.639434, 15.074761 ] } },
{ "type": "Feature", "properties": { "class": "country", "iso_a2": "CA", "name": "Canada", "label_rank": 2 }, "geometry": { "type": "Point", "coordinates": [ -101.9107, 60.324287 ] } },
{ "type": "Feature", "properties": { "class": "country", "iso_a2": "CM", "name": "Cameroon", "label_rank": 3 }, "geometry": { "type": "Point", "coordinates": [ 12.473488, 4.585041 ] } },
{ "type": "Feature", "properties": { "class": "country", "iso_a2": "KH", "name": "Cambodia", "label_rank": 3 }, "geometry": { "type": "Point", "coordinates": [ 104.50487, 12.647584 ] } },
{ "type": "Feature", "properties": { "class": "country", "iso_a2": "MM", "name": "Myanmar", "label_rank": 3 }, "geometry": { "type": "Point", "coordinates": [ 95.804497, 21.573855 ] } },
{ "type": "Feature", "properties": { "class": "country", "iso_a2": "BI", "name": "Burundi", "label_rank": 6 }, "geometry": { "type": "Point", "coordinates": [ 29.917086, -3.332836 ] } },
{ "type": "Feature", "properties": { "class": "country", "iso_a2": "BF", "name": "Burkina Faso", "label_rank": 3 }, "geometry": { "type": "Point", "coordinates": [ -1.36388, 12.673048 ] } },
{ "type": "Feature", "properties": { "class": "country", "iso_a2": "BG", "name": "Bulgaria", "label_rank": 4 }, "geometry": { "type": "Point", "coordinates": [ 25.15709, 42.508785 ] } },
{ "type": "Feature", "properties": { "class": "country", "iso_a2": "BN", "name": "Brunei Darussalam", "label_rank": 6 }, "geometry": { "type": "Point", "coordinates": [ 114.551943, 4.448298 ] } },
{ "type": "Feature", "properties": { "class": "country", "iso_a2": "BR", "name": "Brazil", "label_rank": 2 }, "geometry": { "type": "Point", "coordinates": [ -49.55945, -12.098687 ] } },
{ "type": "Feature", "properties": { "class": "country", "iso_a2": "BW", "name": "Botswana", "label_rank": 4 }, "geometry": { "type": "Point", "coordinates": [ 24.179216, -22.102634 ] } },
{ "type": "Feature", "properties": { "class": "country", "iso_a2": "BA", "name": "Bosnia and Herzegovina", "label_rank": 5 }, "geometry": { "type": "Point", "coordinates": [ 18.06841, 44.091051 ] } },
{ "type": "Feature", "properties": { "class": "country", "iso_a2": "BO", "name": "Bolivia", "label_rank": 3 }, "geometry": { "type": "Point", "coordinates": [ -64.593433, -16.666015 ] } },
{ "type": "Feature", "properties": { "class": "country", "iso_a2": "BT", "name": "Bhutan", "label_rank": 5 }, "geometry": { "type": "Point", "coordinates": [ 90.040294, 27.536685 ] } },
{ "type": "Feature", "properties": { "class": "country", "iso_a2": "BJ", "name": "Benin", "label_rank": 5 }, "geometry": { "type": "Point", "coordinates": [ 2.352018, 10.324775 ] } },
{ "type": "Feature", "properties": { "class": "country", "iso_a2": "BZ", "name": "Belize", "label_rank": 6 }, "geometry": { "type": "Point", "coordinates": [ -88.712962, 17.202068 ] } },
{ "type": "Feature", "properties": { "class": "country", "iso_a2": "BE", "name": "Belgium", "label_rank": 2 }, "geometry": { "type": "Point", "coordinates": [ 4.800448, 50.785392 ] } },
{ "type": "Feature", "properties": { "class": "country", "iso_a2": "BY", "name": "Belarus", "label_rank": 4 }, "geometry": { "type": "Point", "coordinates": [ 28.417701, 53.821888 ] } },
{ "type": "Feature", "properties": { "class": "country", "iso_a2": "BB", "name": "Barbados", "label_rank": 5 }, "geometry": { "type": "Point", "coordinates": [ -59.568966, 13.163709 ] } },
{ "type": "Feature", "properties": { "class": "country", "iso_a2": "BD", "name": "Bangladesh", "label_rank": 3 }, "geometry": { "type": "Point", "coordinates": [ 89.684963, 24.214956 ] } },
{ "type": "Feature", "properties": { "class": "country", "iso_a2": "BH", "name": "Bahrain", "label_rank": 4 }, "geometry": { "type": "Point", "coordinates": [ 50.554816, 26.055972 ] } },
{ "type": "Feature", "properties": { "class": "country", "iso_a2": "BS", "name": "Bahamas", "label_rank": 4 }, "geometry": { "type": "Point", "coordinates": [ -77.146688, 26.401789 ] } },
{ "type": "Feature", "properties": { "class": "country", "iso_a2": "AZ", "name": "Azerbaijan", "label_rank": 5 }, "geometry": { "type": "Point", "coordinates": [ 47.210994, 40.402387 ] } },
{ "type": "Feature", "properties": { "class": "country", "iso_a2": "AT", "name": "Austria", "label_rank": 4 }, "geometry": { "type": "Point", "coordinates": [ 14.130515, 47.518859 ] } },
{ "type": "Feature", "properties": { "class": "country", "iso_a2": "AU", "name": "Australia", "label_rank": 2 }, "geometry": { "type": "Point", "coordinates": [ 134.04972, -24.129522 ] } },
{ "type": "Feature", "properties": { "class": "country", "iso_a2": "-99", "name": "Indian Ocean Territories", "label_rank": 5 }, "geometry": { "type": "Point", "coordinates": [ 105.67259, -10.490789 ] } },
{ "type": "Feature", "properties": { "class": "country", "iso_a2": "HM", "name": "Heard I. and McDonald Islands", "label_rank": 5 }, "geometry": { "type": "Point", "coordinates": [ 73.50521, -53.103462 ] } },
{ "type": "Feature", "properties": { "class": "country", "iso_a2": "NF", "name": "Norfolk Island", "label_rank": 5 }, "geometry": { "type": "Point", "coordinates": [ 167.954531, -29.033042 ] } },
{ "type": "Feature", "properties": { "class": "country", "iso_a2": "-99", "name": "Ashmore and Cartier Islands", "label_rank": 5 }, "geometry": { "type": "Point", "coordinates": [ 123.586368, -12.432571 ] } },
{ "type": "Feature", "properties": { "class": "country", "iso_a2": "AM", "name": "Armenia", "label_rank": 6 }, "geometry": { "type": "Point", "coordinates": [ 44.800564, 40.459077 ] } },
{ "type": "Feature", "properties": { "class": "country", "iso_a2": "AR", "name": "Argentina", "label_rank": 2 }, "geometry": { "type": "Point", "coordinates": [ -64.173331, -33.501159 ] } },
{ "type": "Feature", "properties": { "class": "country", "iso_a2": "AG", "name": "Antigua and Barbuda", "label_rank": 6 }, "geometry": { "type": "Point", "coordinates": [ -61.790612, 17.352249 ] } },
{ "type": "Feature", "properties": { "class": "country", "iso_a2": "AO", "name": "Angola", "label_rank": 3 }, "geometry": { "type": "Point", "coordinates": [ 17.984249, -12.182762 ] } },
{ "type": "Feature", "properties": { "class": "country", "iso_a2": "AD", "name": "Andorra", "label_rank": 6 }, "geometry": { "type": "Point", "coordinates": [ 1.539409, 42.547643 ] } },
{ "type": "Feature", "properties": { "class": "country", "iso_a2": "DZ", "name": "Algeria", "label_rank": 3 }, "geometry": { "type": "Point", "coordinates": [ 2.808241, 27.397406 ] } },
{ "type": "Feature", "properties": { "class": "country", "iso_a2": "AL", "name": "Albania", "label_rank": 6 }, "geometry": { "type": "Point", "coordinates": [ 20.11384, 40.654855 ] } },
{ "type": "Feature", "properties": { "class": "country", "iso_a2": "AF", "name": "Afghanistan", "label_rank": 3 }, "geometry": { "type": "Point", "coordinates": [ 66.496586, 34.164262 ] } },
{ "type": "Feature", "properties": { "class": "country", "iso_a2": "-99", "name": "Siachen Glacier", "label_rank": 5 }, "geometry": { "type": "Point", "coordinates": [ 77.129553, 35.340606 ] } },
{ "type": "Feature", "properties": { "class": "country", "iso_a2": "AQ", "name": "Antarctica", "label_rank": 4 }, "geometry": { "type": "Point", "coordinates": [ 35.885455, -79.843222 ] } },
{ "type": "Feature", "properties": { "class": "country", "iso_a2": "SX", "name": "Sint Maarten", "label_rank": 6 }, "geometry": { "type": "Point", "coordinates": [ -63.070133, 18.04088 ] } },
{ "type": "Feature", "properties": { "class": "country", "iso_a2": "TV", "name": "Tuvalu", "label_rank": 6 }, "geometry": { "type": "Point", "coordinates": [ 179.209587, -8.513717 ] } }
]
}
