{
"type": "FeatureCollection",
"name": "main",
"description": "date=20231106 shasum=379623670b8d327adedcb2cdf89c7805233e2ff8a8cfc79712e9f2ead9904b11 sql=SELECT MakePoint(longitude, latitude, 4326) AS geometry, 'province' AS class, iso_a2, name_en AS name, labelrank AS label_rank FROM ne_50m_admin_1_states_provinces",
"crs": { "type": "name", "properties": { "name": "urn:ogc:def:crs:OGC:1.3:CRS84" } },
"features": [
{ "type": "Feature", "properties": { "class": "province", "iso_a2": "AU", "name": "Western Australia", "label_rank": 2 }, "geometry": { "type": "Point", "coordinates": [ 121.646, -25.8483 ] } },
{ "type": "Feature", "properties": { "class": "province", "iso_a2": "AU", "name": "Northern Territory", "label_rank": 2 }, "geometry": { "type": "Point", "coordinates": [ 133.78, -20.1026 ] } },
{ "type": "Feature", "properties": { "class": "province", "iso_a2": "AU", "name": "South Australia", "label_rank": 2 }, "geometry": { "type": "Point", "coordinates": [ 135.783, -29.6504 ] } },
{ "type": "Feature", "properties": { "class": "province", "iso_a2": "AU", "name": "Queensland", "label_rank": 2 }, "geometry": { "type": "Point", "coordinates": [ 144.778, -23.1364 ] } },
{ "type": "Feature", "properties": { "class": "province", "iso_a2": "AU", "name": "Tasmania", "label_rank": 2 }, "geometry": { "type": "Point", "coordinates": [ 146.603, -42.1383 ] } },
{ "type": "Feature", "properties": { "class": "province", "iso_a2": "AU", "name": "Victoria", "label_rank": 2 }, "geometry": { "type": "Point", "coordinates": [ 144.75, -37.0082 ] } },
{ "type": "Feature", "properties": { "class": "province", "iso_a2": "AU", "name": "Australian Capital Territory", "label_rank": 9 }, "geometry": { "type": "Point", "coordinates": [ 148.983, -35.4618 ] } },
{ "type": "Feature", "properties": { "class": "province", "iso_a2": "AU", "name": "Jervis Bay Territory", "label_rank": 2 }, "geometry": { "type": "Point", "coordinates": [ 150.692, -35.1532 ] } },
{ "type": "Feature", "properties": { "class": "province", "iso_a2": "AU", "name": "New South Wales", "label_rank": 2 }, "geometry": { "type": "Point", "coordinates": [ 146.781, -32.4751 ] } },
{ "type": "Feature", "properties": { "class": "province", "iso_a2": "BR", "name": "Acre", "label_rank": 2 }, "geometry": { "type": "Point", "coordinates": [ -70.2976, -8.9285 ] } },
{ "type": "Feature", "properties": { "class": "province", "iso_a2": "BR", "name": "Rondônia", "label_rank": 2 }, "geometry": { "type": "Point", "coordinates": [ -63.1439, -10.9712 ] } },
{ "type": "Feature", "properties": { "class": "province", "iso_a2": "BR", "name": "Roraima", "label_rank": 2 }, "geometry": { "type": "Point", "coordinates": [ -61.3325, 1.93803 ] } },
{ "type": "Feature", "properties": { "class": "province", "iso_a2": "BR", "name": "Amazonas", "label_rank": 2 }, "geometry": { "type": "Point", "coordinates": [ -63.7853, -4.21774 ] } },
{ "type": "Feature", "properties": { "class": "province", "iso_a2": "BR", "name": "Pará", "label_rank": 2 }, "geometry": { "type": "Point", "coordinates": [ -52.6491, -4.44313 ] } },
{ "type": "Feature", "properties": { "class": "province", "iso_a2": "BR", "name": "Mato Grosso do Sul", "label_rank": 2 }, "geometry": { "type": "Point", "coordinates": [ -54.5502, -20.6756 ] } },
{ "type": "Feature", "properties": { "class": "province", "iso_a2": "BR", "name": "Amapá", "label_rank": 2 }, "geometry": { "type": "Point", "coordinates": [ -51.6842, 1.41157 ] } },
{ "type": "Feature", "properties": { "class": "province", "iso_a2": "BR", "name": "Mato Grosso", "label_rank": 2 }, "geometry": { "type": "Point", "coordinates": [ -55.9235, -13.3926 ] } },
{ "type": "Feature", "properties": { "class": "province", "iso_a2": "BR", "name": "Paraná", "label_rank": 2 }, "geometry": { "type": "Point", "coordinates": [ -51.3228, -24.6618 ] } },
{ "type": "Feature", "properties": { "class": "province", "iso_a2": "BR", "name": "Federal", "label_rank": 7 }, "geometry": { "type": "Point", "coordinates": [ -47.7902, -15.7665 ] } },
{ "type": "Feature", "properties": { "class": "province", "iso_a2": "BR", "name": "Goiás", "label_rank": 2 }, "geometry": { "type": "Point", "coordinates": [ -49.5786, -15.863 ] } },
{ "type": "Feature", "properties": { "class": "province", "iso_a2": "BR", "name": "Tocantins", "label_rank": 2 }, "geometry": { "type": "Point", "coordinates": [ -48.2502, -10.223 ] } },
{ "type": "Feature", "properties": { "class": "province", "iso_a2": "BR", "name": "São Paulo", "label_rank": 2 }, "geometry": { "type": "Point", "coordinates": [ -48.5206, -22.2267 ] } },
{ "type": "Feature", "properties": { "class": "province", "iso_a2": "BR", "name": "Maranhão", "label_rank": 2 }, "geometry": { "type": "Point", "coordinates": [ -45.389, -5.01897 ] } },
{ "type": "Feature", "properties": { "class": "province", "iso_a2": "BR", "name": "Rio de Janeiro", "label_rank": 2 }, "geometry": { "type": "Point", "coordinates": [ -43.1152, -22.4049 ] } },
{ "type": "Feature", "properties": { "class": "province", "iso_a2": "BR", "name": "Piauí", "label_rank": 2 }, "geometry": { "type": "Point", "coordinates": [ -43.1974, -8.08698 ] } },
{ "type": "Feature", "properties": { "class": "province", "iso_a2": "BR", "name": "Minas Gerais", "label_rank": 2 }, "geometry": { "type": "Point", "coordinates": [ -44.4808, -18.5895 ] } },
{ "type": "Feature", "properties": { "class": "province", "iso_a2": "BR", "name": "Espírito Santo", "label_rank": 2 }, "geometry": { "type": "Point", "coordinates": [ -40.5436, -19.6916 ] } },
{ "type": "Feature", "properties": { "class": "province", "iso_a2": "BR", "name": "Bahia", "label_rank": 2 }, "geometry": { "type": "Point", "coordinates": [ -41.8027, -12.3651 ] } },
{ "type": "Feature", "properties": { "class": "province", "iso_a2": "BR", "name": "Ceará", "label_rank": 2 }, "geometry": { "type": "Point", "coordinates": [ -39.3429, -5.37602 ] } },
{ "type": "Feature", "properties": { "class": "province", "iso_a2": "BR", "name": "Sergipe", "label_rank": 2 }, "geometry": { "type": "Point", "coordinates": [ -37.3836, -10.5918 ] } },
{ "type": "Feature", "properties": { "class": "province", "iso_a2": "BR", "name": "Alagoas", "label_rank": 2 }, "geometry": { "type": "Point", "coordinates": [ -36.6917, -9.77391 ] } },
{ "type": "Feature", "properties": { "class": "province", "iso_a2": "BR", "name": "Rio Grande do Norte", "label_rank": 2 }, "geometry": { "type": "Point", "coordinates": [ -36.5472, -5.66157 ] } },
{ "type": "Feature", "properties": { "class": "province", "iso_a2": "BR", "name": "Pernambuco", "label_rank": 2 }, "geometry": { "type": "Point", "coordinates": [ -37.2958, -8.47283 ] } },
{ "type": "Feature", "properties": { "class": "province", "iso_a2": "BR", "name": "Paraíba", "label_rank": 2 }, "geometry": { "type": "Point", "coordinates": [ -36.2726, -7.34234 ] } },
{ "type": "Feature", "properties": { "class": "province", "iso_a2": "BR", "name": "Santa Catarina", "label_rank": 2 }, "geometry": { "type": "Point", "coordinates": [ -51.1586, -27.0392 ] } },
{ "type": "Feature", "properties": { "class": "province", "iso_a2": "BR", "name": "Rio Grande do Sul", "label_rank": 2 }, "geometry": { "type": "Point", "coordinates": [ -53.656, -29.7277 ] } },
{ "type": "Feature", "properties": { "class": "province", "iso_a2": "CA", "name": "Alberta", "label_rank": 2 }, "geometry": { "type": "Point", "coordinates": [ -115.0, 55.2816 ] } },
{ "type": "Feature", "properties": { "class": "province", "iso_a2": "CA", "name": "British Columbia", "label_rank": 2 }, "geometry": { "type": "Point", "coordinates": [ -124.662, 54.6943 ] } },
{ "type": "Feature", "properties": { "class": "province", "iso_a2": "CA", "name": "Manitoba", "label_rank": 2 }, "geometry": { "type": "Point", "coordinates": [ -97.3828, 54.85 ] } },
{ "type": "Feature", "properties": { "class": "province", "iso_a2": "CA", "name": "New Brunswick", "label_rank": 2 }, "geometry": { "type": "Point", "coordinates": [ -66.4558, 46.5822 ] } },
{ "type": "Feature", "properties": { "class": "province", "iso_a2": "CA", "name": "Newfoundland and Labrador", "label_rank": 2 }, "geometry": { "type": "Point", "coordinates": [ -56.2169, 48.6598 ] } },
{ "type": "Feature", "properties": { "class": "province", "iso_a2": "CA", "name": "Nova Scotia", "label_rank": 2 }, "geometry": { "type": "Point", "coordinates": [ -62.8113, 45.2293 ] } },
{ "type": "Feature", "properties": { "class": "province", "iso_a2": "CA", "name": "Northwest Territories", "label_rank": 2 }, "geometry": { "type": "Point", "coordinates": [ -119.942, 64.0831 ] } },
{ "type": "Feature", "properties": { "class": "province", "iso_a2": "CA", "name": "Nunavut", "label_rank": 2 }, "geometry": { "type": "Point", "coordinates": [ -97.1443, 64.3853 ] } },
{ "type": "Feature", "properties": { "class": "province", "iso_a2": "CA", "name": "Ontario", "label_rank": 2 }, "geometry": { "type": "Point", "coordinates": [ -84.7943, 50.5244 ] } },
{ "type": "Feature", "properties": { "class": "province", "iso_a2": "CA", "name": "Prince Edward Island", "label_rank": 2 }, "geometry": { "type": "Point", "coordinates": [ -63.3862, 46.3417 ] } },
{ "type": "Feature", "properties": { "class": "province", "iso_a2": "CA", "name": "Quebec", "label_rank": 2 }, "geometry": { "type": "Point", "coordinates": [ -73.7168, 52.2593 ] } },
{ "type": "Feature", "properties": { "class": "province", "iso_a2": "CA", "name": "Saskatchewan", "label_rank": 2 }, "geometry": { "type": "Point", "coordinates": [ -105.682, 54.4965 ] } },
{ "type": "Feature", "properties": { "class": "province", "iso_a2": "CA", "name": "Yukon", "label_rank": 2 }, "geometry": { "type": "Point", "coordinates": [ -135.7, 63.6088 ] } },
{ "type": "Feature", "properties": { "class": "province", "iso_a2": "US", "name": "Alaska", "label_rank": 0 }, "geometry": { "type": "Point", "coordinates": [ -151.604, 65.3609 ] } },
{ "type": "Feature", "properties": { "class": "province", "iso_a2": "US", "name": "Alabama", "label_rank": 0 }, "geometry": { "type": "Point", "coordinates": [ -86.7184, 32.8551 ] } },
{ "type": "Feature", "properties": { "class": "province", "iso_a2": "US", "name": "Arkansas", "label_rank": 0 }, "geometry": { "type": "Point", "coordinates": [ -92.1428, 34.7563 ] } },
{ "type": "Feature", "properties": { "class": "province", "iso_a2": "US", "name": "Arizona", "label_rank": 0 }, "geometry": { "type": "Point", "coordinates": [ -111.935, 34.3046 ] } },
{ "type": "Feature", "properties": { "class": "province", "iso_a2": "US", "name": "California", "label_rank": 0 }, "geometry": { "type": "Point", "coordinates": [ -119.591, 36.7496 ] } },
{ "type": "Feature", "properties": { "class": "province", "iso_a2": "US", "name": "Colorado", "label_rank": 0 }, "geometry": { "type": "Point", "coordinates": [ -105.543, 38.9998 ] } },
{ "type": "Feature", "properties": { "class": "province", "iso_a2": "US", "name": "Connecticut", "label_rank": 0 }, "geometry": { "type": "Point", "coordinates": [ -72.7594, 41.6486 ] } },
{ "type": "Feature", "properties": { "class": "province", "iso_a2": "US", "name": "Washington", "label_rank": 9 }, "geometry": { "type": "Point", "coordinates": [ -77.0113, 38.8922 ] } },
{ "type": "Feature", "properties": { "class": "province", "iso_a2": "US", "name": "Delaware", "label_rank": 0 }, "geometry": { "type": "Point", "coordinates": [ -75.4112, 38.8657 ] } },
{ "type": "Feature", "properties": { "class": "province", "iso_a2": "US", "name": "Florida", "label_rank": 0 }, "geometry": { "type": "Point", "coordinates": [ -81.6228, 28.1568 ] } },
{ "type": "Feature", "properties": { "class": "province", "iso_a2": "US", "name": "Georgia", "label_rank": 0 }, "geometry": { "type": "Point", "coordinates": [ -83.4078, 32.8547 ] } },
{ "type": "Feature", "properties": { "class": "province", "iso_a2": "US", "name": "Hawaii", "label_rank": 0 }, "geometry": { "type": "Point", "coordinates": [ -157.999, 21.4919 ] } },
{ "type": "Feature", "properties": { "class": "province", "iso_a2": "US", "name": "Iowa", "label_rank": 0 }, "geometry": { "type": "Point", "coordinates": [ -93.3891, 42.0423 ] } },
{ "type": "Feature", "properties": { "class": "province", "iso_a2": "US", "name": "Idaho", "label_rank": 0 }, "geometry": { "type": "Point", "coordinates": [ -114.133, 43.7825 ] } },
{ "type": "Feature", "properties": { "class": "province", "iso_a2": "US", "name": "Illinois", "label_rank": 0 }, "geometry": { "type": "Point", "coordinates": [ -89.1991, 39.946 ] } },
{ "type": "Feature", "properties": { "class": "province", "iso_a2": "US", "name": "Indiana", "label_rank": 0 }, "geometry": { "type": "Point", "coordinates": [ -86.1396, 39.8874 ] } },
{ "type": "Feature", "properties": { "class": "province", "iso_a2": "US", "name": "Kansas", "label_rank": 0 }, "geometry": { "type": "Point", "coordinates": [ -98.3309, 38.5 ] } },
{ "type": "Feature", "properties": { "class": "province", "iso_a2": "US", "name": "Kentucky", "label_rank": 0 }, "geometry": { "type": "Point", "coordinates": [ -85.5729, 37.3994 ] } },
{ "type": "Feature", "properties": { "class": "province", "iso_a2": "US", "name": "Louisiana", "label_rank": 0 }, "geometry": { "type": "Point", "coordinates": [ -91.9991, 30.5274 ] } },
{ "type": "Feature", "properties": { "class": "province", "iso_a2": "US", "name": "Massachusetts", "label_rank": 0 }, "geometry": { "type": "Point", "coordinates": [ -71.9993, 42.3739 ] } },
{ "type": "Feature", "properties": { "class": "province", "iso_a2": "US", "name": "Maryland", "label_rank": 0 }, "geometry": { "type": "Point", "coordinates": [ -77.0454, 39.3874 ] } },
{ "type": "Feature", "properties": { "class": "province", "iso_a2": "US", "name": "Maine", "label_rank": 0 }, "geometry": { "type": "Point", "coordinates": [ -69.1973, 45.148 ] } },
{ "type": "Feature", "properties": { "class": "province", "iso_a2": "US", "name": "Michigan", "label_rank": 0 }, "geometry": { "type": "Point", "coordinates": [ -84.9479, 43.4343 ] } },
{ "type": "Feature", "properties": { "class": "province", "iso_a2": "US", "name": "Minnesota", "label_rank": 0 }, "geometry": { "type": "Point", "coordinates": [ -93.364, 46.0592 ] } },
{ "type": "Feature", "properties": { "class": "province", "iso_a2": "US", "name": "Missouri", "label_rank": 0 }, "geometry": { "type": "Point", "coordinates": [ -92.446, 38.5487 ] } },
{ "type": "Feature", "properties": { "class": "province", "iso_a2": "US", "name": "Mississippi", "label_rank": 0 }, "geometry": { "type": "Point", "coordinates": [ -89.7189, 32.8657 ] } },
{ "type": "Feature", "properties": { "class": "province", "iso_a2": "US", "name": "Montana", "label_rank": 0 }, "geometry": { "type": "Point", "coordinates": [ -110.044, 46.9965 ] } },
{ "type": "Feature", "properties": { "class": "province", "iso_a2": "US", "name": "North Carolina", "label_rank": 0 }, "geometry": { "type": "Point", "coordinates": [ -78.866, 35.6152 ] } },
{ "type": "Feature", "properties": { "class": "province", "iso_a2": "US", "name": "North Dakota", "label_rank": 0 }, "geometry": { "type": "Point", "coordinates": [ -100.302, 47.4675 ] } },
{ "type": "Feature", "properties": { "class": "province", "iso_a2": "US", "name": "Nebraska", "label_rank": 0 }, "geometry": { "type": "Point", "coordinates": [ -99.6855, 41.5002 ] } },
{ "type": "Feature", "properties": { "class": "province", "iso_a2": "US", "name": "New Hampshire", "label_rank": 0 }, "geometry": { "type": "Point", "coordinates": [ -71.6301, 43.5993 ] } },
{ "type": "Feature", "properties": { "class": "province", "iso_a2": "US", "name": "New Jersey", "label_rank": 0 }, "geometry": { "type": "Point", "coordinates": [ -74.4653, 40.0449 ] } },
{ "type": "Feature", "properties": { "class": "province", "iso_a2": "US", "name": "New Mexico", "label_rank": 0 }, "geometry": { "type": "Point", "coordinates": [ -106.024, 34.5002 ] } },
{ "type": "Feature", "properties": { "class": "province", "iso_a2": "US", "name": "Nevada", "label_rank": 0 }, "geometry": { "type": "Point", "coordinates": [ -117.02, 39.4299 ] } },
{ "type": "Feature", "properties": { "class": "province", "iso_a2": "US", "name": "New York", "label_rank": 0 }, "geometry": { "type": "Point", "coordinates": [ -75.3242, 43.1988 ] } },
{ "type": "Feature", "properties": { "class": "province", "iso_a2": "US", "name": "Ohio", "label_rank": 0 }, "geometry": { "type": "Point", "coordinates": [ -82.6719, 40.0924 ] } },
{ "type": "Feature", "properties": { "class": "province", "iso_a2": "US", "name": "Oklahoma", "label_rank": 0 }, "geometry": { "type": "Point", "coordinates": [ -97.1309, 35.452 ] } },
{ "type": "Feature", "properties": { "class": "province", "iso_a2": "US", "name": "Oregon", "label_rank": 0 }, "geometry": { "type": "Point", "coordinates": [ -120.386, 43.8333 ] } },
{ "type": "Feature", "properties": { "class": "province", "iso_a2": "US", "name": "Pennsylvania", "label_rank": 0 }, "geometry": { "type": "Point", "coordinates": [ -77.6094, 40.8601 ] } },
{ "type": "Feature", "properties": { "class": "province", "iso_a2": "US", "name": "Rhode Island", "label_rank": 0 }, "geometry": { "type": "Point", "coordinates": [ -71.5082, 41.6242 ] } },
{ "type": "Feature", "properties": { "class": "province", "iso_a2": "US", "name": "South Carolina", "label_rank": 0 }, "geometry": { "type": "Point", "coordinates": [ -80.6471, 33.8578 ] } },
{ "type": "Feature", "properties": { "class": "province", "iso_a2": "US", "name": "South Dakota", "label_rank": 0 }, "geometry": { "type": "Point", "coordinates": [ -100.255, 44.4711 ] } },
{ "type": "Feature", "properties": { "class": "province", "iso_a2": "US", "name": "Tennessee", "label_rank": 0 }, "geometry": { "type": "Point", "coordinates": [ -86.3415, 35.7514 ] } },
{ "type": "Feature", "properties": { "class": "province", "iso_a2": "US", "name": "Texas", "label_rank": 0 }, "geometry": { "type": "Point", "coordinates": [ -98.7607, 31.131 ] } },
{ "type": "Feature", "properties": { "class": "province", "iso_a2": "US", "name": "Utah", "label_rank": 0 }, "geometry": { "type": "Point", "coordinates": [ -111.544, 39.5007 ] } },
{ "type": "Feature", "properties": { "class": "province", "iso_a2": "US", "name": "Virginia", "label_rank": 0 }, "geometry": { "type": "Point", "coordinates": [ -78.2431, 37.7403 ] } },
{ "type": "Feature", "properties": { "class": "province", "iso_a2": "US", "name": "Vermont", "label_rank": 0 }, "geometry": { "type": "Point", "coordinates": [ -72.7317, 44.0886 ] } },
{ "type": "Feature", "properties": { "class": "province", "iso_a2": "US", "name": "Washington", "label_rank": 0 }, "geometry": { "type": "Point", "coordinates": [ -120.361, 47.4865 ] } },
{ "type": "Feature", "properties": { "class": "province", "iso_a2": "US", "name": "Wisconsin", "label_rank": 0 }, "geometry": { "type": "Point", "coordinates": [ -89.5831, 44.3709 ] } },
{ "type": "Feature", "properties": { "class": "province", "iso_a2": "US", "name": "West Virginia", "label_rank": 0 }, "geometry": { "type": "Point", "coordinates": [ -80.7128, 38.6422 ] } },
{ "type": "Feature", "properties": { "class": "province", "iso_a2": "US", "name": "Wyoming", "label_rank": 0 }, "geometry": { "type": "Point", "coordinates": [ -107.552, 42.9999 ] } },
{ "type": "Feature", "properties": { "class": "province", "iso_a2": "CN", "name": "Gansu", "label_rank": 2 }, "geometry": { "type": "Point", "coordinates": [ 100.735, 38.7393 ] } },
{ "type": "Feature", "properties": { "class": "province", "iso_a2": "CN", "name": "Qinghai", "label_rank": 2 }, "geometry": { "type": "Point", "coordinates": [ 96.2377, 35.2652 ] } },
{ "type": "Feature", "properties": { "class": "province", "iso_a2": "CN", "name": "Guangxi", "label_rank": 2 }, "geometry": { "type": "Point", "coordinates": [ 108.756, 23.7451 ] } },
{ "type": "Feature", "properties": { "class": "province", "iso_a2": "CN", "name": "Guizhou", "label_rank": 2 }, "geometry": { "type": "Point", "coordinates": [ 106.559, 26.8033 ] } },
{ "type": "Feature", "properties": { "class": "province", "iso_a2": "CN", "name": "Chongqing", "label_rank": 2 }, "geometry": { "type": "Point", "coordinates": [ 107.73, 30.0173 ] } },
{ "type": "Feature", "properties": { "class": "province", "iso_a2": "CN", "name": "Beijing", "label_rank": 7 }, "geometry": { "type": "Point", "coordinates": [ 116.389, 39.9488 ] } },
{ "type": "Feature", "properties": { "class": "province", "iso_a2": "CN", "name": "Fujian", "label_rank": 2 }, "geometry": { "type": "Point", "coordinates": [ 118.178, 26.408 ] } },
{ "type": "Feature", "properties": { "class": "province", "iso_a2": "CN", "name": "Anhui", "label_rank": 2 }, "geometry": { "type": "Point", "coordinates": [ 117.253, 31.9537 ] } },
{ "type": "Feature", "properties": { "class": "province", "iso_a2": "CN", "name": "Guangdong", "label_rank": 2 }, "geometry": { "type": "Point", "coordinates": [ 113.72, 23.7924 ] } },
{ "type": "Feature", "properties": { "class": "province", "iso_a2": "CN", "name": "Tibet", "label_rank": 2 }, "geometry": { "type": "Point", "coordinates": [ 88.4137, 31.4515 ] } },
{ "type": "Feature", "properties": { "class": "province", "iso_a2": "IN", "name": "Sikkim", "label_rank": 2 }, "geometry": { "type": "Point", "coordinates": [ 88.4482, 27.5709 ] } },
{ "type": "Feature", "properties": { "class": "province", "iso_a2": "CN", "name": "Xinjiang", "label_rank": 2 }, "geometry": { "type": "Point", "coordinates": [ 85.4253, 41.122 ] } },
{ "type": "Feature", "properties": { "class": "province", "iso_a2": "CN", "name": "Hainan", "label_rank": 2 }, "geometry": { "type": "Point", "coordinates": [ 109.825, 19.1865 ] } },
{ "type": "Feature", "properties": { "class": "province", "iso_a2": "CN", "name": "Ningxia", "label_rank": 2 }, "geometry": { "type": "Point", "coordinates": [ 106.038, 37.1762 ] } },
{ "type": "Feature", "properties": { "class": "province", "iso_a2": "CN", "name": "Shaanxi", "label_rank": 2 }, "geometry": { "type": "Point", "coordinates": [ 108.363, 33.7713 ] } },
{ "type": "Feature", "properties": { "class": "province", "iso_a2": "CN", "name": "Shanxi", "label_rank": 2 }, "geometry": { "type": "Point", "coordinates": [ 112.389, 37.7586 ] } },
{ "type": "Feature", "properties": { "class": "province", "iso_a2": "CN", "name": "Hubei", "label_rank": 2 }, "geometry": { "type": "Point", "coordinates": [ 112.264, 30.9857 ] } },
{ "type": "Feature", "properties": { "class": "province", "iso_a2": "CN", "name": "Hunan", "label_rank": 2 }, "geometry": { "type": "Point", "coordinates": [ 111.712, 27.6667 ] } },
{ "type": "Feature", "properties": { "class": "province", "iso_a2": "CN", "name": "Sichuan", "label_rank": 2 }, "geometry": { "type": "Point", "coordinates": [ 102.384, 30.5431 ] } },
{ "type": "Feature", "properties": { "class": "province", "iso_a2": "CN", "name": "Yunnan", "label_rank": 2 }, "geometry": { "type": "Point", "coordinates": [ 101.661, 24.4603 ] } },
{ "type": "Feature", "properties": { "class": "province", "iso_a2": "CN", "name": "Hebei", "label_rank": 2 }, "geometry": { "type": "Point", "coordinates": [ 115.314, 38.5205 ] } },
{ "type": "Feature", "properties": { "class": "province", "iso_a2": "CN", "name": "Henan", "label_rank": 2 }, "geometry": { "type": "Point", "coordinates": [ 113.484, 33.9055 ] } },
{ "type": "Feature", "properties": { "class": "province", "iso_a2": "CN", "name": "Liaoning", "label_rank": 2 }, "geometry": { "type": "Point", "coordinates": [ 123.07, 41.386 ] } },
{ "type": "Feature", "properties": { "class": "province", "iso_a2": "CN", "name": "Shandong", "label_rank": 2 }, "geometry": { "type": "Point", "coordinates": [ 118.114, 36.3271 ] } },
{ "type": "Feature", "properties": { "class": "province", "iso_a2": "CN", "name": "Tianjin", "label_rank": 7 }, "geometry": { "type": "Point", "coordinates": [ 117.347, 39.3708 ] } },
{ "type": "Feature", "properties": { "class": "province", "iso_a2": "CN", "name": "Jiangxi", "label_rank": 2 }, "geometry": { "type": "Point", "coordinates": [ 116.017, 27.6397 ] } },
{ "type": "Feature", "properties": { "class": "province", "iso_a2": "CN", "name": "Jiangsu", "label_rank": 2 }, "geometry": { "type": "Point", "coordinates": [ 119.942, 32.9844 ] } },
{ "type": "Feature", "properties": { "class": "province", "iso_a2": "CN", "name": "Shanghai", "label_rank": 7 }, "geometry": { "type": "Point", "coordinates": [ 121.409, 31.0909 ] } },
{ "type": "Feature", "properties": { "class": "province", "iso_a2": "CN", "name": "Zhejiang", "label_rank": 2 }, "geometry": { "type": "Point", "coordinates": [ 119.97, 29.1084 ] } },
{ "type": "Feature", "properties": { "class": "province", "iso_a2": "CN", "name": "Jilin", "label_rank": 2 }, "geometry": { "type": "Point", "coordinates": [ 126.466, 43.2978 ] } },
{ "type": "Feature", "properties": { "class": "province", "iso_a2": "CN", "name": "Inner Mongolia", "label_rank": 2 }, "geometry": { "type": "Point", "coordinates": [ 111.623, 41.5938 ] } },
{ "type": "Feature", "properties": { "class": "province", "iso_a2": "CN", "name": "Heilongjiang", "label_rank": 2 }, "geometry": { "type": "Point", "coordinates": [ 127.97, 46.8451 ] } },
{ "type": "Feature", "properties": { "class": "province", "iso_a2": "ID", "name": "Aceh", "label_rank": 6 }, "geometry": { "type": "Point", "coordinates": [ 96.9956, 4.41533 ] } },
{ "type": "Feature", "properties": { "class": "province", "iso_a2": "ID", "name": "East Kalimantan", "label_rank": 2 }, "geometry": { "type": "Point", "coordinates": [ 116.354, 1.28915 ] } },
{ "type": "Feature", "properties": { "class": "province", "iso_a2": "ID", "name": "West Java", "label_rank": 2 }, "geometry": { "type": "Point", "coordinates": [ 107.638, -6.90763 ] } },
{ "type": "Feature", "properties": { "class": "province", "iso_a2": "ID", "name": "Central Java", "label_rank": 2 }, "geometry": { "type": "Point", "coordinates": [ 109.896, -7.2901 ] } },
{ "type": "Feature", "properties": { "class": "province", "iso_a2": "ID", "name": "Bengkulu", "label_rank": 7 }, "geometry": { "type": "Point", "coordinates": [ 102.368, -3.48606 ] } },
{ "type": "Feature", "properties": { "class": "province", "iso_a2": "ID", "name": "Banten", "label_rank": 2 }, "geometry": { "type": "Point", "coordinates": [ 106.167, -6.25794 ] } },
{ "type": "Feature", "properties": { "class": "province", "iso_a2": "ID", "name": "Jakarta", "label_rank": 9 }, "geometry": { "type": "Point", "coordinates": [ 106.837, -6.22462 ] } },
{ "type": "Feature", "properties": { "class": "province", "iso_a2": "ID", "name": "West Kalimantan", "label_rank": 2 }, "geometry": { "type": "Point", "coordinates": [ 111.304, -0.0636474 ] } },
{ "type": "Feature", "properties": { "class": "province", "iso_a2": "ID", "name": "Lampung", "label_rank": 2 }, "geometry": { "type": "Point", "coordinates": [ 105.059, -4.919 ] } },
{ "type": "Feature", "properties": { "class": "province", "iso_a2": "ID", "name": "South Sumatra", "label_rank": 2 }, "geometry": { "type": "Point", "coordinates": [ 104.073, -3.3824 ] } },
{ "type": "Feature", "properties": { "class": "province", "iso_a2": "ID", "name": "Bangka Belitung Islands", "label_rank": 2 }, "geometry": { "type": "Point", "coordinates": [ 106.819, -2.95817 ] } },
{ "type": "Feature", "properties": { "class": "province", "iso_a2": "ID", "name": "Bali", "label_rank": 2 }, "geometry": { "type": "Point", "coordinates": [ 115.179, -8.3412 ] } },
{ "type": "Feature", "properties": { "class": "province", "iso_a2": "ID", "name": "East Java", "label_rank": 2 }, "geometry": { "type": "Point", "coordinates": [ 112.616, -7.88129 ] } },
{ "type": "Feature", "properties": { "class": "province", "iso_a2": "ID", "name": "South Kalimantan", "label_rank": 2 }, "geometry": { "type": "Point", "coordinates": [ 115.451, -3.00713 ] } },
{ "type": "Feature", "properties": { "class": "province", "iso_a2": "ID", "name": "East Nusa Tenggara", "label_rank": 2 }, "geometry": { "type": "Point", "coordinates": [ 120.689, -8.58443 ] } },
{ "type": "Feature", "properties": { "class": "province", "iso_a2": "ID", "name": "South Sulawesi", "label_rank": 2 }, "geometry": { "type": "Point", "coordinates": [ 119.99, -3.7444 ] } },
{ "type": "Feature", "properties": { "class": "province", "iso_a2": "ID", "name": "West Sulawesi", "label_rank": 2 }, "geometry": { "type": "Point", "coordinates": [ 119.316, -2.69615 ] } },
{ "type": "Feature", "properties": { "class": "province", "iso_a2": "ID", "name": "Riau Islands", "label_rank": 2 }, "geometry": { "type": "Point", "coordinates": [ 104.601, -0.142639 ] } },
{ "type": "Feature", "properties": { "class": "province", "iso_a2": "ID", "name": "Gorontalo", "label_rank": 7 }, "geometry": { "type": "Point", "coordinates": [ 122.331, 0.760501 ] } },
{ "type": "Feature", "properties": { "class": "province", "iso_a2": "ID", "name": "Jambi", "label_rank": 6 }, "geometry": { "type": "Point", "coordinates": [ 102.823, -1.65497 ] } },
{ "type": "Feature", "properties": { "class": "province", "iso_a2": "ID", "name": "Central Kalimantan", "label_rank": 2 }, "geometry": { "type": "Point", "coordinates": [ 113.286, -1.84217 ] } },
{ "type": "Feature", "properties": { "class": "province", "iso_a2": "ID", "name": "West Papua", "label_rank": 2 }, "geometry": { "type": "Point", "coordinates": [ 132.825, -1.32525 ] } },
{ "type": "Feature", "properties": { "class": "province", "iso_a2": "ID", "name": "North Sumatra", "label_rank": 2 }, "geometry": { "type": "Point", "coordinates": [ 99.2161, 2.36304 ] } },
{ "type": "Feature", "properties": { "class": "province", "iso_a2": "ID", "name": "Riau", "label_rank": 2 }, "geometry": { "type": "Point", "coordinates": [ 101.745, 0.396892 ] } },
{ "type": "Feature", "properties": { "class": "province", "iso_a2": "ID", "name": "North Sulawesi", "label_rank": 2 }, "geometry": { "type": "Point", "coordinates": [ 124.446, 0.853039 ] } },
{ "type": "Feature", "properties": { "class": "province", "iso_a2": "ID", "name": "North Maluku", "label_rank": 2 }, "geometry": { "type": "Point", "coordinates": [ 125.976, -2.28945 ] } },
{ "type": "Feature", "properties": { "class": "province", "iso_a2": "ID", "name": "West Sumatra", "label_rank": 2 }, "geometry": { "type": "Point", "coordinates": [ 100.611, -0.642611 ] } },
{ "type": "Feature", "properties": { "class": "province", "iso_a2": "ID", "name": "Yogyakarta", "label_rank": 7 }, "geometry": { "type": "Point", "coordinates": [ 110.443, -7.83533 ] } },
{ "type": "Feature", "properties": { "class": "province", "iso_a2": "ID", "name": "Maluku", "label_rank": 2 }, "geometry": { "type": "Point", "coordinates": [ 128.161, -8.24814 ] } },
{ "type": "Feature", "properties": { "class": "province", "iso_a2": "ID", "name": "West Nusa Tenggara", "label_rank": 2 }, "geometry": { "type": "Point", "coordinates": [ 116.294, -8.57106 ] } },
{ "type": "Feature", "properties": { "class": "province", "iso_a2": "ID", "name": "Southeast Sulawesi", "label_rank": 2 }, "geometry": { "type": "Point", "coordinates": [ 122.119, -4.0746 ] } },
{ "type": "Feature", "properties": { "class": "province", "iso_a2": "ID", "name": "Central Sulawesi", "label_rank": 2 }, "geometry": { "type": "Point", "coordinates": [ 120.153, -1.30097 ] } },
{ "type": "Feature", "properties": { "class": "province", "iso_a2": "ID", "name": "Papua", "label_rank": 2 }, "geometry": { "type": "Point", "coordinates": [ 138.689, -4.10825 ] } },
{ "type": "Feature", "properties": { "class": "province", "iso_a2": "IN", "name": "Telangana", "label_rank": 2 }, "geometry": { "type": "Point", "coordinates": [ 78.468441094, 17.427312681699998 ] } },
{ "type": "Feature", "properties": { "class": "province", "iso_a2": "IN", "name": "Ladakh", "label_rank": 2 }, "geometry": { "type": "Point", "coordinates": [ 77.480613565100001, 34.025586758099998 ] } },
{ "type": "Feature", "properties": { "class": "province", "iso_a2": "IN", "name": "Chandigarh", "label_rank": 9 }, "geometry": { "type": "Point", "coordinates": [ 76.7605, 30.7452 ] } },
{ "type": "Feature", "properties": { "class": "province", "iso_a2": "IN", "name": "Delhi", "label_rank": 9 }, "geometry": { "type": "Point", "coordinates": [ 77.0856, 28.69 ] } },
{ "type": "Feature", "properties": { "class": "province", "iso_a2": "IN", "name": "Himachal Pradesh", "label_rank": 2 }, "geometry": { "type": "Point", "coordinates": [ 77.2875, 31.6755 ] } },
{ "type": "Feature", "properties": { "class": "province", "iso_a2": "IN", "name": "Haryana", "label_rank": 2 }, "geometry": { "type": "Point", "coordinates": [ 76.271, 29.1003 ] } },
{ "type": "Feature", "properties": { "class": "province", "iso_a2": "IN", "name": "Jammu and Kashmir", "label_rank": 2 }, "geometry": { "type": "Point", "coordinates": [ 76.6395, 33.9658 ] } },
{ "type": "Feature", "properties": { "class": "province", "iso_a2": "IN", "name": "Andhra Pradesh", "label_rank": 2 }, "geometry": { "type": "Point", "coordinates": [ 79.208, 16.4854 ] } },
{ "type": "Feature", "properties": { "class": "province", "iso_a2": "IN", "name": "Kerala", "label_rank": 2 }, "geometry": { "type": "Point", "coordinates": [ 76.5237, 10.3666 ] } },
{ "type": "Feature", "properties": { "class": "province", "iso_a2": "IN", "name": "Lakshadweep", "label_rank": 2 }, "geometry": { "type": "Point", "coordinates": [ 72.7811, 11.2249 ] } },
{ "type": "Feature", "properties": { "class": "province", "iso_a2": "IN", "name": "Odisha", "label_rank": 2 }, "geometry": { "type": "Point", "coordinates": [ 84.4341, 20.625 ] } },
{ "type": "Feature", "properties": { "class": "province", "iso_a2": "IN", "name": "Dadra and Nagar Haveli and Daman and Diu", "label_rank": 9 }, "geometry": { "type": "Point", "coordinates": [ 73.029, 20.1841 ] } },
{ "type": "Feature", "properties": { "class": "province", "iso_a2": "IN", "name": "Karnataka", "label_rank": 2 }, "geometry": { "type": "Point", "coordinates": [ 75.667, 14.3681 ] } },
{ "type": "Feature", "properties": { "class": "province", "iso_a2": "IN", "name": "Goa", "label_rank": 2 }, "geometry": { "type": "Point", "coordinates": [ 73.9951, 15.3133 ] } },
{ "type": "Feature", "properties": { "class": "province", "iso_a2": "IN", "name": "Andaman and Nicobar Islands", "label_rank": 2 }, "geometry": { "type": "Point", "coordinates": [ 93.7895, 6.83654 ] } },
{ "type": "Feature", "properties": { "class": "province", "iso_a2": "IN", "name": "Assam", "label_rank": 2 }, "geometry": { "type": "Point", "coordinates": [ 92.9929, 26.3302 ] } },
{ "type": "Feature", "properties": { "class": "province", "iso_a2": "IN", "name": "Manipur", "label_rank": 2 }, "geometry": { "type": "Point", "coordinates": [ 93.8457, 24.7442 ] } },
{ "type": "Feature", "properties": { "class": "province", "iso_a2": "IN", "name": "Nagaland", "label_rank": 2 }, "geometry": { "type": "Point", "coordinates": [ 94.5664, 26.1094 ] } },
{ "type": "Feature", "properties": { "class": "province", "iso_a2": "IN", "name": "Meghalaya", "label_rank": 2 }, "geometry": { "type": "Point", "coordinates": [ 91.3031, 25.4804 ] } },
{ "type": "Feature", "properties": { "class": "province", "iso_a2": "IN", "name": "Punjab", "label_rank": 2 }, "geometry": { "type": "Point", "coordinates": [ 75.3762, 31.0245 ] } },
{ "type": "Feature", "properties": { "class": "province", "iso_a2": "IN", "name": "Rajasthan", "label_rank": 2 }, "geometry": { "type": "Point", "coordinates": [ 73.8556, 26.7468 ] } },
{ "type": "Feature", "properties": { "class": "province", "iso_a2": "IN", "name": "Uttar Pradesh", "label_rank": 2 }, "geometry": { "type": "Point", "coordinates": [ 80.9966, 26.7201 ] } },
{ "type": "Feature", "properties": { "class": "province", "iso_a2": "IN", "name": "Uttarakhand", "label_rank": 2 }, "geometry": { "type": "Point", "coordinates": [ 79.2841, 30.0576 ] } },
{ "type": "Feature", "properties": { "class": "province", "iso_a2": "IN", "name": "Jharkhand", "label_rank": 2 }, "geometry": { "type": "Point", "coordinates": [ 85.0584, 23.5221 ] } },
{ "type": "Feature", "properties": { "class": "province", "iso_a2": "IN", "name": "West Bengal", "label_rank": 2 }, "geometry": { "type": "Point", "coordinates": [ 87.7289, 23.0523 ] } },
{ "type": "Feature", "properties": { "class": "province", "iso_a2": "IN", "name": "Bihar", "label_rank": 2 }, "geometry": { "type": "Point", "coordinates": [ 85.8134, 25.6853 ] } },
{ "type": "Feature", "properties": { "class": "province", "iso_a2": "IN", "name": "Chhattisgarh", "label_rank": 2 }, "geometry": { "type": "Point", "coordinates": [ 82.3069, 21.8044 ] } },
{ "type": "Feature", "properties": { "class": "province", "iso_a2": "IN", "name": "Madhya Pradesh", "label_rank": 2 }, "geometry": { "type": "Point", "coordinates": [ 78.4214, 22.9404 ] } },
{ "type": "Feature", "properties": { "class": "province", "iso_a2": "IN", "name": "Puducherry", "label_rank": 2 }, "geometry": { "type": "Point", "coordinates": [ 79.7758, 10.9224 ] } },
{ "type": "Feature", "properties": { "class": "province", "iso_a2": "IN", "name": "Tamil Nadu", "label_rank": 2 }, "geometry": { "type": "Point", "coordinates": [ 78.2704, 11.0159 ] } },
{ "type": "Feature", "properties": { "class": "province", "iso_a2": "IN", "name": "Gujarat", "label_rank": 2 }, "geometry": { "type": "Point", "coordinates": [ 71.3013, 22.7501 ] } },
{ "type": "Feature", "properties": { "class": "province", "iso_a2": "IN", "name": "Arunachal Pradesh", "label_rank": 2 }, "geometry": { "type": "Point", "coordinates": [ 94.4673, 28.4056 ] } },
{ "type": "Feature", "properties": { "class": "province", "iso_a2": "IN", "name": "Mizoram", "label_rank": 2 }, "geometry": { "type": "Point", "coordinates": [ 92.8409, 23.2037 ] } },
{ "type": "Feature", "properties": { "class": "province", "iso_a2": "IN", "name": "Tripura", "label_rank": 2 }, "geometry": { "type": "Point", "coordinates": [ 91.7031, 23.8519 ] } },
{ "type": "Feature", "properties": { "class": "province", "iso_a2": "RU", "name": "Tomsk", "label_rank": 6 }, "geometry": { "type": "Point", "coordinates": [ 82.2299, 58.4467 ] } },
{ "type": "Feature", "properties": { "class": "province", "iso_a2": "RU", "name": "Republic of Adygea", "label_rank": 2 }, "geometry": { "type": "Point", "coordinates": [ 40.1293, 44.4658 ] } },
{ "type": "Feature", "properties": { "class": "province", "iso_a2": "RU", "name": "Karachay-Cherkess Republic", "label_rank": 2 }, "geometry": { "type": "Point", "coordinates": [ 41.6866, 43.7073 ] } },
{ "type": "Feature", "properties": { "class": "province", "iso_a2": "RU", "name": "Republic of Ingushetia", "label_rank": 2 }, "geometry": { "type": "Point", "coordinates": [ 44.8468, 43.3661 ] } },
{ "type": "Feature", "properties": { "class": "province", "iso_a2": "RU", "name": "Kabardino-Balkaria", "label_rank": 2 }, "geometry": { "type": "Point", "coordinates": [ 43.3982, 43.3757 ] } },
{ "type": "Feature", "properties": { "class": "province", "iso_a2": "RU", "name": "Republic of North Ossetia-Alania", "label_rank": 2 }, "geometry": { "type": "Point", "coordinates": [ 44.1653, 42.9969 ] } },
{ "type": "Feature", "properties": { "class": "province", "iso_a2": "RU", "name": "Stavropol Krai", "label_rank": 7 }, "geometry": { "type": "Point", "coordinates": [ 43.2791, 44.981 ] } },
{ "type": "Feature", "properties": { "class": "province", "iso_a2": "RU", "name": "Chukotka Autonomous Okrug", "label_rank": 2 }, "geometry": { "type": "Point", "coordinates": [ 170.516, 66.7517 ] } },
{ "type": "Feature", "properties": { "class": "province", "iso_a2": "RU", "name": "Kaliningrad", "label_rank": 7 }, "geometry": { "type": "Point", "coordinates": [ 21.2287, 54.6636 ] } },
{ "type": "Feature", "properties": { "class": "province", "iso_a2": "RU", "name": "Murmansk", "label_rank": 6 }, "geometry": { "type": "Point", "coordinates": [ 34.3212, 67.9609 ] } },
{ "type": "Feature", "properties": { "class": "province", "iso_a2": "RU", "name": "Novgorod", "label_rank": 6 }, "geometry": { "type": "Point", "coordinates": [ 32.9454, 58.4228 ] } },
{ "type": "Feature", "properties": { "class": "province", "iso_a2": "RU", "name": "Pskov", "label_rank": 6 }, "geometry": { "type": "Point", "coordinates": [ 29.1229, 57.2449 ] } },
{ "type": "Feature", "properties": { "class": "province", "iso_a2": "RU", "name": "Leningrad", "label_rank": 2 }, "geometry": { "type": "Point", "coordinates": [ 32.7736, 59.9905 ] } },
{ "type": "Feature", "properties": { "class": "province", "iso_a2": "RU", "name": "Saint Petersburg", "label_rank": 7 }, "geometry": { "type": "Point", "coordinates": [ 30.2901, 59.8064 ] } },
{ "type": "Feature", "properties": { "class": "province", "iso_a2": "RU", "name": "Bryansk", "label_rank": 7 }, "geometry": { "type": "Point", "coordinates": [ 33.2803, 53.0868 ] } },
{ "type": "Feature", "properties": { "class": "province", "iso_a2": "RU", "name": "Smolensk", "label_rank": 6 }, "geometry": { "type": "Point", "coordinates": [ 33.0803, 54.6726 ] } },
{ "type": "Feature", "properties": { "class": "province", "iso_a2": "RU", "name": "Karelia", "label_rank": 2 }, "geometry": { "type": "Point", "coordinates": [ 33.1446, 63.5295 ] } },
{ "type": "Feature", "properties": { "class": "province", "iso_a2": "RU", "name": "Arkhangelsk", "label_rank": 6 }, "geometry": { "type": "Point", "coordinates": [ 41.9939, 63.3132 ] } },
{ "type": "Feature", "properties": { "class": "province", "iso_a2": "RU", "name": "Ivanovo", "label_rank": 7 }, "geometry": { "type": "Point", "coordinates": [ 41.6244, 57.1213 ] } },
{ "type": "Feature", "properties": { "class": "province", "iso_a2": "RU", "name": "Vologda", "label_rank": 6 }, "geometry": { "type": "Point", "coordinates": [ 40.9333, 59.6397 ] } },
{ "type": "Feature", "properties": { "class": "province", "iso_a2": "RU", "name": "Kostroma", "label_rank": 6 }, "geometry": { "type": "Point", "coordinates": [ 43.4689, 58.3882 ] } },
{ "type": "Feature", "properties": { "class": "province", "iso_a2": "RU", "name": "Nizhny Novgorod", "label_rank": 2 }, "geometry": { "type": "Point", "coordinates": [ 44.7751, 56.1384 ] } },
{ "type": "Feature", "properties": { "class": "province", "iso_a2": "RU", "name": "Tver", "label_rank": 6 }, "geometry": { "type": "Point", "coordinates": [ 34.5445, 57.0297 ] } },
{ "type": "Feature", "properties": { "class": "province", "iso_a2": "RU", "name": "Yaroslavl", "label_rank": 6 }, "geometry": { "type": "Point", "coordinates": [ 39.2547, 57.7329 ] } },
{ "type": "Feature", "properties": { "class": "province", "iso_a2": "RU", "name": "Kaluga", "label_rank": 7 }, "geometry": { "type": "Point", "coordinates": [ 35.3416, 54.2421 ] } },
{ "type": "Feature", "properties": { "class": "province", "iso_a2": "RU", "name": "Kursk", "label_rank": 7 }, "geometry": { "type": "Point", "coordinates": [ 36.2921, 51.7358 ] } },
{ "type": "Feature", "properties": { "class": "province", "iso_a2": "RU", "name": "Lipetsk", "label_rank": 7 }, "geometry": { "type": "Point", "coordinates": [ 39.2073, 52.7462 ] } },
{ "type": "Feature", "properties": { "class": "province", "iso_a2": "RU", "name": "Moscow", "label_rank": 2 }, "geometry": { "type": "Point", "coordinates": [ 38.671, 55.1508 ] } },
{ "type": "Feature", "properties": { "class": "province", "iso_a2": "RU", "name": "Moscow", "label_rank": 9 }, "geometry": { "type": "Point", "coordinates": [ 37.6188, 55.7177 ] } },
{ "type": "Feature", "properties": { "class": "province", "iso_a2": "RU", "name": "Oryol", "label_rank": 7 }, "geometry": { "type": "Point", "coordinates": [ 36.4166, 52.8778 ] } },
{ "type": "Feature", "properties": { "class": "province", "iso_a2": "RU", "name": "Rostov", "label_rank": 6 }, "geometry": { "type": "Point", "coordinates": [ 41.2613, 47.9913 ] } },
{ "type": "Feature", "properties": { "class": "province", "iso_a2": "RU", "name": "Tula", "label_rank": 7 }, "geometry": { "type": "Point", "coordinates": [ 37.4161, 54.0668 ] } },
{ "type": "Feature", "properties": { "class": "province", "iso_a2": "RU", "name": "Volgograd", "label_rank": 6 }, "geometry": { "type": "Point", "coordinates": [ 44.4488, 49.5014 ] } },
{ "type": "Feature", "properties": { "class": "province", "iso_a2": "RU", "name": "Belgorod", "label_rank": 7 }, "geometry": { "type": "Point", "coordinates": [ 37.277, 50.8757 ] } },
{ "type": "Feature", "properties": { "class": "province", "iso_a2": "RU", "name": "Krasnodar Krai", "label_rank": 6 }, "geometry": { "type": "Point", "coordinates": [ 39.4688, 45.8397 ] } },
{ "type": "Feature", "properties": { "class": "province", "iso_a2": "RU", "name": "Republic of Mordovia", "label_rank": 2 }, "geometry": { "type": "Point", "coordinates": [ 44.4631, 54.1154 ] } },
{ "type": "Feature", "properties": { "class": "province", "iso_a2": "RU", "name": "Penza", "label_rank": 7 }, "geometry": { "type": "Point", "coordinates": [ 44.8159, 53.0562 ] } },
{ "type": "Feature", "properties": { "class": "province", "iso_a2": "RU", "name": "Ryazan", "label_rank": 6 }, "geometry": { "type": "Point", "coordinates": [ 40.6258, 54.3363 ] } },
{ "type": "Feature", "properties": { "class": "province", "iso_a2": "RU", "name": "Tambov", "label_rank": 7 }, "geometry": { "type": "Point", "coordinates": [ 41.5945, 52.7808 ] } },
{ "type": "Feature", "properties": { "class": "province", "iso_a2": "RU", "name": "Vladimir", "label_rank": 7 }, "geometry": { "type": "Point", "coordinates": [ 40.6207, 55.8966 ] } },
{ "type": "Feature", "properties": { "class": "province", "iso_a2": "RU", "name": "Voronezh", "label_rank": 6 }, "geometry": { "type": "Point", "coordinates": [ 40.5223, 50.7774 ] } },
{ "type": "Feature", "properties": { "class": "province", "iso_a2": "RU", "name": "Bashkortostan", "label_rank": 2 }, "geometry": { "type": "Point", "coordinates": [ 56.5575, 54.2086 ] } },
{ "type": "Feature", "properties": { "class": "province", "iso_a2": "RU", "name": "Chelyabinsk", "label_rank": 6 }, "geometry": { "type": "Point", "coordinates": [ 60.2383, 54.1131 ] } },
{ "type": "Feature", "properties": { "class": "province", "iso_a2": "RU", "name": "Kurgan", "label_rank": 6 }, "geometry": { "type": "Point", "coordinates": [ 65.3505, 55.4316 ] } },
{ "type": "Feature", "properties": { "class": "province", "iso_a2": "RU", "name": "Nenets Autonomous Okrug", "label_rank": 2 }, "geometry": { "type": "Point", "coordinates": [ 56.2877, 67.8271 ] } },
{ "type": "Feature", "properties": { "class": "province", "iso_a2": "RU", "name": "Yamalo-Nenets Autonomous Okrug", "label_rank": 2 }, "geometry": { "type": "Point", "coordinates": [ 75.1874, 65.4117 ] } },
{ "type": "Feature", "properties": { "class": "province", "iso_a2": "RU", "name": "Komi Republic", "label_rank": 2 }, "geometry": { "type": "Point", "coordinates": [ 55.8183, 64.1194 ] } },
{ "type": "Feature", "properties": { "class": "province", "iso_a2": "RU", "name": "Kirov", "label_rank": 6 }, "geometry": { "type": "Point", "coordinates": [ 50.1112, 58.1926 ] } },
{ "type": "Feature", "properties": { "class": "province", "iso_a2": "RU", "name": "Mari El Republic", "label_rank": 2 }, "geometry": { "type": "Point", "coordinates": [ 47.9131, 56.5407 ] } },
{ "type": "Feature", "properties": { "class": "province", "iso_a2": "RU", "name": "Sverdlovsk", "label_rank": 6 }, "geometry": { "type": "Point", "coordinates": [ 61.7078, 58.8952 ] } },
{ "type": "Feature", "properties": { "class": "province", "iso_a2": "RU", "name": "Udmurt Republic", "label_rank": 2 }, "geometry": { "type": "Point", "coordinates": [ 52.7957, 57.3433 ] } },
{ "type": "Feature", "properties": { "class": "province", "iso_a2": "RU", "name": "Astrakhan", "label_rank": 7 }, "geometry": { "type": "Point", "coordinates": [ 47.7227, 47.0334 ] } },
{ "type": "Feature", "properties": { "class": "province", "iso_a2": "RU", "name": "Chuvash Republic", "label_rank": 2 }, "geometry": { "type": "Point", "coordinates": [ 47.1662, 55.4883 ] } },
{ "type": "Feature", "properties": { "class": "province", "iso_a2": "RU", "name": "Republic of Kalmykia", "label_rank": 2 }, "geometry": { "type": "Point", "coordinates": [ 45.4681, 46.5191 ] } },
{ "type": "Feature", "properties": { "class": "province", "iso_a2": "RU", "name": "Samara", "label_rank": 6 }, "geometry": { "type": "Point", "coordinates": [ 50.4377, 53.1783 ] } },
{ "type": "Feature", "properties": { "class": "province", "iso_a2": "RU", "name": "Orenburg", "label_rank": 6 }, "geometry": { "type": "Point", "coordinates": [ 56.2149, 51.5157 ] } },
{ "type": "Feature", "properties": { "class": "province", "iso_a2": "RU", "name": "Saratov", "label_rank": 6 }, "geometry": { "type": "Point", "coordinates": [ 46.6368, 51.6742 ] } },
{ "type": "Feature", "properties": { "class": "province", "iso_a2": "RU", "name": "Republic of Tatarstan", "label_rank": 2 }, "geometry": { "type": "Point", "coordinates": [ 50.7364, 55.374 ] } },
{ "type": "Feature", "properties": { "class": "province", "iso_a2": "RU", "name": "Ulyanovsk", "label_rank": 7 }, "geometry": { "type": "Point", "coordinates": [ 47.3773, 53.9248 ] } },
{ "type": "Feature", "properties": { "class": "province", "iso_a2": "RU", "name": "Khanty-Mansi Autonomous Okrug", "label_rank": 2 }, "geometry": { "type": "Point", "coordinates": [ 71.3806, 61.4315 ] } },
{ "type": "Feature", "properties": { "class": "province", "iso_a2": "RU", "name": "Omsk", "label_rank": 6 }, "geometry": { "type": "Point", "coordinates": [ 73.3995, 56.0471 ] } },
{ "type": "Feature", "properties": { "class": "province", "iso_a2": "RU", "name": "Tyumen", "label_rank": 6 }, "geometry": { "type": "Point", "coordinates": [ 68.5186, 57.2639 ] } },
{ "type": "Feature", "properties": { "class": "province", "iso_a2": "RU", "name": "Altai Republic", "label_rank": 2 }, "geometry": { "type": "Point", "coordinates": [ 82.8667, 52.4268 ] } },
{ "type": "Feature", "properties": { "class": "province", "iso_a2": "RU", "name": "Altai Republic", "label_rank": 7 }, "geometry": { "type": "Point", "coordinates": [ 86.937, 50.9782 ] } },
{ "type": "Feature", "properties": { "class": "province", "iso_a2": "RU", "name": "Kemerovo", "label_rank": 6 }, "geometry": { "type": "Point", "coordinates": [ 87.1676, 54.6462 ] } },
{ "type": "Feature", "properties": { "class": "province", "iso_a2": "RU", "name": "Republic of Khakassia", "label_rank": 2 }, "geometry": { "type": "Point", "coordinates": [ 89.8405, 53.3643 ] } },
{ "type": "Feature", "properties": { "class": "province", "iso_a2": "RU", "name": "Novosibirsk", "label_rank": 6 }, "geometry": { "type": "Point", "coordinates": [ 80.0832, 55.3139 ] } },
{ "type": "Feature", "properties": { "class": "province", "iso_a2": "RU", "name": "Chechen Republic", "label_rank": 2 }, "geometry": { "type": "Point", "coordinates": [ 45.757, 43.2153 ] } },
{ "type": "Feature", "properties": { "class": "province", "iso_a2": "RU", "name": "Republic of Dagestan", "label_rank": 2 }, "geometry": { "type": "Point", "coordinates": [ 47.1424, 42.36 ] } },
{ "type": "Feature", "properties": { "class": "province", "iso_a2": "RU", "name": "Irkutsk", "label_rank": 6 }, "geometry": { "type": "Point", "coordinates": [ 105.966, 56.8255 ] } },
{ "type": "Feature", "properties": { "class": "province", "iso_a2": "RU", "name": "Krasnoyarsk Krai", "label_rank": 6 }, "geometry": { "type": "Point", "coordinates": [ 95.2029, 65.5602 ] } },
{ "type": "Feature", "properties": { "class": "province", "iso_a2": "RU", "name": "Tuva Republic", "label_rank": 2 }, "geometry": { "type": "Point", "coordinates": [ 93.9927, 51.6051 ] } },
{ "type": "Feature", "properties": { "class": "province", "iso_a2": "RU", "name": "Republic of Buryatia", "label_rank": 2 }, "geometry": { "type": "Point", "coordinates": [ 109.341, 52.9061 ] } },
{ "type": "Feature", "properties": { "class": "province", "iso_a2": "RU", "name": "Amur", "label_rank": 2 }, "geometry": { "type": "Point", "coordinates": [ 128.354, 52.9236 ] } },
{ "type": "Feature", "properties": { "class": "province", "iso_a2": "RU", "name": "Zabaykalsky Krai", "label_rank": 6 }, "geometry": { "type": "Point", "coordinates": [ 116.559, 52.159 ] } },
{ "type": "Feature", "properties": { "class": "province", "iso_a2": "RU", "name": "Primorsky Krai", "label_rank": 2 }, "geometry": { "type": "Point", "coordinates": [ 134.594, 44.8622 ] } },
{ "type": "Feature", "properties": { "class": "province", "iso_a2": "RU", "name": "Sakha Republic", "label_rank": 2 }, "geometry": { "type": "Point", "coordinates": [ 130.989, 65.5964 ] } },
{ "type": "Feature", "properties": { "class": "province", "iso_a2": "RU", "name": "Jewish", "label_rank": 2 }, "geometry": { "type": "Point", "coordinates": [ 132.758, 48.64 ] } },
{ "type": "Feature", "properties": { "class": "province", "iso_a2": "RU", "name": "Khabarovsk Krai", "label_rank": 6 }, "geometry": { "type": "Point", "coordinates": [ 135.443, 57.0232 ] } },
{ "type": "Feature", "properties": { "class": "province", "iso_a2": "RU", "name": "Magadan", "label_rank": 2 }, "geometry": { "type": "Point", "coordinates": [ 153.797, 62.6257 ] } },
{ "type": "Feature", "properties": { "class": "province", "iso_a2": "RU", "name": "Sakhalin", "label_rank": 2 }, "geometry": { "type": "Point", "coordinates": [ 152.467, 47.3479 ] } },
{ "type": "Feature", "properties": { "class": "province", "iso_a2": "RU", "name": "Autonomous Republic of Crimea", "label_rank": 6 }, "geometry": { "type": "Point", "coordinates": [ 34.2784, 45.3115 ] } },
{ "type": "Feature", "properties": { "class": "province", "iso_a2": "RU", "name": "Perm Krai", "label_rank": 6 }, "geometry": { "type": "Point", "coordinates": [ 56.5878, 58.8735 ] } },
{ "type": "Feature", "properties": { "class": "province", "iso_a2": "RU", "name": "Kamchatka Krai", "label_rank": 2 }, "geometry": { "type": "Point", "coordinates": [ 160.187, 56.5325 ] } },
{ "type": "Feature", "properties": { "class": "province", "iso_a2": "RU", "name": "Sevastopol", "label_rank": 6 }, "geometry": { "type": "Point", "coordinates": [ 33.6396, 44.5182 ] } },
{ "type": "Feature", "properties": { "class": "province", "iso_a2": "ZA", "name": "Northern Cape", "label_rank": 2 }, "geometry": { "type": "Point", "coordinates": [ 20.9961, -29.7437 ] } },
{ "type": "Feature", "properties": { "class": "province", "iso_a2": "ZA", "name": "Western Cape", "label_rank": 2 }, "geometry": { "type": "Point", "coordinates": [ 20.9745, -33.5035 ] } },
{ "type": "Feature", "properties": { "class": "province", "iso_a2": "ZA", "name": "North West", "label_rank": 2 }, "geometry": { "type": "Point", "coordinates": [ 25.7403, -26.3999 ] } },
{ "type": "Feature", "properties": { "class": "province", "iso_a2": "ZA", "name": "Free State", "label_rank": 2 }, "geometry": { "type": "Point", "coordinates": [ 26.4914, -28.5815 ] } },
{ "type": "Feature", "properties": { "class": "province", "iso_a2": "ZA", "name": "Gauteng", "label_rank": 2 }, "geometry": { "type": "Point", "coordinates": [ 28.2074, -26.1682 ] } },
{ "type": "Feature", "properties": { "class": "province", "iso_a2": "ZA", "name": "Mpumalanga", "label_rank": 2 }, "geometry": { "type": "Point", "coordinates": [ 30.1421, -25.9893 ] } },
{ "type": "Feature", "properties": { "class": "province", "iso_a2": "ZA", "name": "Limpopo", "label_rank": 2 }, "geometry": { "type": "Point", "coordinates": [ 29.1301, -23.5859 ] } },
{ "type": "Feature", "properties": { "class": "province", "iso_a2": "ZA", "name": "KwaZulu-Natal", "label_rank": 2 }, "geometry": { "type": "Point", "coordinates": [ 30.8231, -28.7468 ] } },
{ "type": "Feature", "properties": { "class": "province", "iso_a2": "ZA", "name": "Eastern Cape", "label_rank": 2 }, "geometry": { "type": "Point", "coordinates": [ 26.6417, -32.0622 ] } },
{ "type": "Feature", "properties": { "class": "province", "iso_a2": "IN", "name": "Maharashtra", "label_rank": 2 }, "geometry": { "type": "Point", "coordinates": [ 75.4647, 19.4723 ] } }
]
}
